(kicad_sch (version 20230121) (generator eeschema)

  (uuid e0666d22-e687-4adb-b95b-6588526d91f1)

  (paper "A4")

  (lib_symbols
    (symbol "CH340C:CH340C" (pin_names (offset 1.016)) (in_bom yes) (on_board yes)
      (property "Reference" "U" (at -10.16 20.955 0)
        (effects (font (size 1.27 1.27)) (justify left bottom))
      )
      (property "Value" "CH340C" (at -10.16 -20.32 0)
        (effects (font (size 1.27 1.27)) (justify left bottom))
      )
      (property "Footprint" "SOIC127P600X180-16N" (at 0 0 0)
        (effects (font (size 1.27 1.27)) (justify left bottom) hide)
      )
      (property "Datasheet" "" (at 0 0 0)
        (effects (font (size 1.27 1.27)) (justify left bottom) hide)
      )
      (property "MANUFACTURER" "WCH" (at 0 0 0)
        (effects (font (size 1.27 1.27)) (justify left bottom) hide)
      )
      (property "PARTREV" "2G" (at 0 0 0)
        (effects (font (size 1.27 1.27)) (justify left bottom) hide)
      )
      (property "MAXIMUM_PACKAGE_HEIGHT" "1.8 mm" (at 0 0 0)
        (effects (font (size 1.27 1.27)) (justify left bottom) hide)
      )
      (property "STANDARD" "IPC 7351B" (at 0 0 0)
        (effects (font (size 1.27 1.27)) (justify left bottom) hide)
      )
      (property "ki_locked" "" (at 0 0 0)
        (effects (font (size 1.27 1.27)))
      )
      (symbol "CH340C_0_0"
        (rectangle (start -10.16 -17.78) (end 10.16 20.32)
          (stroke (width 0.254) (type default))
          (fill (type background))
        )
        (pin power_in line (at 15.24 -15.24 180) (length 5.08)
          (name "GND" (effects (font (size 1.016 1.016))))
          (number "1" (effects (font (size 1.016 1.016))))
        )
        (pin input line (at -15.24 -2.54 0) (length 5.08)
          (name "~{DSR}" (effects (font (size 1.016 1.016))))
          (number "10" (effects (font (size 1.016 1.016))))
        )
        (pin input line (at -15.24 -5.08 0) (length 5.08)
          (name "~{RI}" (effects (font (size 1.016 1.016))))
          (number "11" (effects (font (size 1.016 1.016))))
        )
        (pin input line (at -15.24 -7.62 0) (length 5.08)
          (name "~{DCD}" (effects (font (size 1.016 1.016))))
          (number "12" (effects (font (size 1.016 1.016))))
        )
        (pin output line (at 15.24 0 180) (length 5.08)
          (name "~{DTR}" (effects (font (size 1.016 1.016))))
          (number "13" (effects (font (size 1.016 1.016))))
        )
        (pin output line (at 15.24 -2.54 180) (length 5.08)
          (name "~{RTS}" (effects (font (size 1.016 1.016))))
          (number "14" (effects (font (size 1.016 1.016))))
        )
        (pin input line (at -15.24 12.7 0) (length 5.08)
          (name "R232" (effects (font (size 1.016 1.016))))
          (number "15" (effects (font (size 1.016 1.016))))
        )
        (pin power_in line (at 15.24 17.78 180) (length 5.08)
          (name "VCC" (effects (font (size 1.016 1.016))))
          (number "16" (effects (font (size 1.016 1.016))))
        )
        (pin output line (at -15.24 5.08 0) (length 5.08)
          (name "TXD" (effects (font (size 1.016 1.016))))
          (number "2" (effects (font (size 1.016 1.016))))
        )
        (pin input line (at -15.24 7.62 0) (length 5.08)
          (name "RXD" (effects (font (size 1.016 1.016))))
          (number "3" (effects (font (size 1.016 1.016))))
        )
        (pin power_in line (at 15.24 15.24 180) (length 5.08)
          (name "V3" (effects (font (size 1.016 1.016))))
          (number "4" (effects (font (size 1.016 1.016))))
        )
        (pin bidirectional line (at 15.24 7.62 180) (length 5.08)
          (name "UD+" (effects (font (size 1.016 1.016))))
          (number "5" (effects (font (size 1.016 1.016))))
        )
        (pin bidirectional line (at 15.24 5.08 180) (length 5.08)
          (name "UD-" (effects (font (size 1.016 1.016))))
          (number "6" (effects (font (size 1.016 1.016))))
        )
        (pin no_connect line (at 15.24 -10.16 180) (length 5.08)
          (name "NC." (effects (font (size 1.016 1.016))))
          (number "7" (effects (font (size 1.016 1.016))))
        )
        (pin output line (at 15.24 -5.08 180) (length 5.08)
          (name "~{OUT}" (effects (font (size 1.016 1.016))))
          (number "8" (effects (font (size 1.016 1.016))))
        )
        (pin input line (at -15.24 0 0) (length 5.08)
          (name "~{CTS}" (effects (font (size 1.016 1.016))))
          (number "9" (effects (font (size 1.016 1.016))))
        )
      )
    )
    (symbol "Connector:Conn_01x02_Male" (pin_names (offset 1.016) hide) (in_bom yes) (on_board yes)
      (property "Reference" "J" (at 0 2.54 0)
        (effects (font (size 1.27 1.27)))
      )
      (property "Value" "Conn_01x02_Male" (at 0 -5.08 0)
        (effects (font (size 1.27 1.27)))
      )
      (property "Footprint" "" (at 0 0 0)
        (effects (font (size 1.27 1.27)) hide)
      )
      (property "Datasheet" "~" (at 0 0 0)
        (effects (font (size 1.27 1.27)) hide)
      )
      (property "ki_keywords" "connector" (at 0 0 0)
        (effects (font (size 1.27 1.27)) hide)
      )
      (property "ki_description" "Generic connector, single row, 01x02, script generated (kicad-library-utils/schlib/autogen/connector/)" (at 0 0 0)
        (effects (font (size 1.27 1.27)) hide)
      )
      (property "ki_fp_filters" "Connector*:*_1x??_*" (at 0 0 0)
        (effects (font (size 1.27 1.27)) hide)
      )
      (symbol "Conn_01x02_Male_1_1"
        (polyline
          (pts
            (xy 1.27 -2.54)
            (xy 0.8636 -2.54)
          )
          (stroke (width 0.1524) (type default))
          (fill (type none))
        )
        (polyline
          (pts
            (xy 1.27 0)
            (xy 0.8636 0)
          )
          (stroke (width 0.1524) (type default))
          (fill (type none))
        )
        (rectangle (start 0.8636 -2.413) (end 0 -2.667)
          (stroke (width 0.1524) (type default))
          (fill (type outline))
        )
        (rectangle (start 0.8636 0.127) (end 0 -0.127)
          (stroke (width 0.1524) (type default))
          (fill (type outline))
        )
        (pin passive line (at 5.08 0 180) (length 3.81)
          (name "Pin_1" (effects (font (size 1.27 1.27))))
          (number "1" (effects (font (size 1.27 1.27))))
        )
        (pin passive line (at 5.08 -2.54 180) (length 3.81)
          (name "Pin_2" (effects (font (size 1.27 1.27))))
          (number "2" (effects (font (size 1.27 1.27))))
        )
      )
    )
    (symbol "Connector:Conn_ARM_JTAG_SWD_10" (pin_names (offset 1.016)) (in_bom yes) (on_board yes)
      (property "Reference" "J" (at -2.54 16.51 0)
        (effects (font (size 1.27 1.27)) (justify right))
      )
      (property "Value" "Conn_ARM_JTAG_SWD_10" (at -2.54 13.97 0)
        (effects (font (size 1.27 1.27)) (justify right bottom))
      )
      (property "Footprint" "" (at 0 0 0)
        (effects (font (size 1.27 1.27)) hide)
      )
      (property "Datasheet" "http://infocenter.arm.com/help/topic/com.arm.doc.ddi0314h/DDI0314H_coresight_components_trm.pdf" (at -8.89 -31.75 90)
        (effects (font (size 1.27 1.27)) hide)
      )
      (property "ki_keywords" "Cortex Debug Connector ARM SWD JTAG" (at 0 0 0)
        (effects (font (size 1.27 1.27)) hide)
      )
      (property "ki_description" "Cortex Debug Connector, standard ARM Cortex-M SWD and JTAG interface" (at 0 0 0)
        (effects (font (size 1.27 1.27)) hide)
      )
      (property "ki_fp_filters" "PinHeader?2x05?P1.27mm*" (at 0 0 0)
        (effects (font (size 1.27 1.27)) hide)
      )
      (symbol "Conn_ARM_JTAG_SWD_10_0_1"
        (rectangle (start -10.16 12.7) (end 10.16 -12.7)
          (stroke (width 0.254) (type default))
          (fill (type background))
        )
        (rectangle (start -2.794 -12.7) (end -2.286 -11.684)
          (stroke (width 0) (type default))
          (fill (type none))
        )
        (rectangle (start -0.254 -12.7) (end 0.254 -11.684)
          (stroke (width 0) (type default))
          (fill (type none))
        )
        (rectangle (start -0.254 12.7) (end 0.254 11.684)
          (stroke (width 0) (type default))
          (fill (type none))
        )
        (rectangle (start 9.144 2.286) (end 10.16 2.794)
          (stroke (width 0) (type default))
          (fill (type none))
        )
        (rectangle (start 10.16 -2.794) (end 9.144 -2.286)
          (stroke (width 0) (type default))
          (fill (type none))
        )
        (rectangle (start 10.16 -0.254) (end 9.144 0.254)
          (stroke (width 0) (type default))
          (fill (type none))
        )
        (rectangle (start 10.16 7.874) (end 9.144 7.366)
          (stroke (width 0) (type default))
          (fill (type none))
        )
      )
      (symbol "Conn_ARM_JTAG_SWD_10_1_1"
        (rectangle (start 9.144 -5.334) (end 10.16 -4.826)
          (stroke (width 0) (type default))
          (fill (type none))
        )
        (pin power_in line (at 0 15.24 270) (length 2.54)
          (name "VTref" (effects (font (size 1.27 1.27))))
          (number "1" (effects (font (size 1.27 1.27))))
        )
        (pin open_collector line (at 12.7 7.62 180) (length 2.54)
          (name "~{RESET}" (effects (font (size 1.27 1.27))))
          (number "10" (effects (font (size 1.27 1.27))))
        )
        (pin bidirectional line (at 12.7 0 180) (length 2.54)
          (name "SWDIO/TMS" (effects (font (size 1.27 1.27))))
          (number "2" (effects (font (size 1.27 1.27))))
        )
        (pin power_in line (at 0 -15.24 90) (length 2.54)
          (name "GND" (effects (font (size 1.27 1.27))))
          (number "3" (effects (font (size 1.27 1.27))))
        )
        (pin output line (at 12.7 2.54 180) (length 2.54)
          (name "SWDCLK/TCK" (effects (font (size 1.27 1.27))))
          (number "4" (effects (font (size 1.27 1.27))))
        )
        (pin passive line (at 0 -15.24 90) (length 2.54) hide
          (name "GND" (effects (font (size 1.27 1.27))))
          (number "5" (effects (font (size 1.27 1.27))))
        )
        (pin input line (at 12.7 -2.54 180) (length 2.54)
          (name "SWO/TDO" (effects (font (size 1.27 1.27))))
          (number "6" (effects (font (size 1.27 1.27))))
        )
        (pin no_connect line (at -10.16 0 0) (length 2.54) hide
          (name "KEY" (effects (font (size 1.27 1.27))))
          (number "7" (effects (font (size 1.27 1.27))))
        )
        (pin output line (at 12.7 -5.08 180) (length 2.54)
          (name "NC/TDI" (effects (font (size 1.27 1.27))))
          (number "8" (effects (font (size 1.27 1.27))))
        )
        (pin passive line (at -2.54 -15.24 90) (length 2.54)
          (name "GNDDetect" (effects (font (size 1.27 1.27))))
          (number "9" (effects (font (size 1.27 1.27))))
        )
      )
    )
    (symbol "Connector:TestPoint" (pin_numbers hide) (pin_names (offset 0.762) hide) (in_bom yes) (on_board yes)
      (property "Reference" "TP" (at 0 6.858 0)
        (effects (font (size 1.27 1.27)))
      )
      (property "Value" "TestPoint" (at 0 5.08 0)
        (effects (font (size 1.27 1.27)))
      )
      (property "Footprint" "" (at 5.08 0 0)
        (effects (font (size 1.27 1.27)) hide)
      )
      (property "Datasheet" "~" (at 5.08 0 0)
        (effects (font (size 1.27 1.27)) hide)
      )
      (property "ki_keywords" "test point tp" (at 0 0 0)
        (effects (font (size 1.27 1.27)) hide)
      )
      (property "ki_description" "test point" (at 0 0 0)
        (effects (font (size 1.27 1.27)) hide)
      )
      (property "ki_fp_filters" "Pin* Test*" (at 0 0 0)
        (effects (font (size 1.27 1.27)) hide)
      )
      (symbol "TestPoint_0_1"
        (circle (center 0 3.302) (radius 0.762)
          (stroke (width 0) (type default))
          (fill (type none))
        )
      )
      (symbol "TestPoint_1_1"
        (pin passive line (at 0 0 90) (length 2.54)
          (name "1" (effects (font (size 1.27 1.27))))
          (number "1" (effects (font (size 1.27 1.27))))
        )
      )
    )
    (symbol "Device:C" (pin_numbers hide) (pin_names (offset 0.254)) (in_bom yes) (on_board yes)
      (property "Reference" "C" (at 0.635 2.54 0)
        (effects (font (size 1.27 1.27)) (justify left))
      )
      (property "Value" "C" (at 0.635 -2.54 0)
        (effects (font (size 1.27 1.27)) (justify left))
      )
      (property "Footprint" "" (at 0.9652 -3.81 0)
        (effects (font (size 1.27 1.27)) hide)
      )
      (property "Datasheet" "~" (at 0 0 0)
        (effects (font (size 1.27 1.27)) hide)
      )
      (property "ki_keywords" "cap capacitor" (at 0 0 0)
        (effects (font (size 1.27 1.27)) hide)
      )
      (property "ki_description" "Unpolarized capacitor" (at 0 0 0)
        (effects (font (size 1.27 1.27)) hide)
      )
      (property "ki_fp_filters" "C_*" (at 0 0 0)
        (effects (font (size 1.27 1.27)) hide)
      )
      (symbol "C_0_1"
        (polyline
          (pts
            (xy -2.032 -0.762)
            (xy 2.032 -0.762)
          )
          (stroke (width 0.508) (type default))
          (fill (type none))
        )
        (polyline
          (pts
            (xy -2.032 0.762)
            (xy 2.032 0.762)
          )
          (stroke (width 0.508) (type default))
          (fill (type none))
        )
      )
      (symbol "C_1_1"
        (pin passive line (at 0 3.81 270) (length 2.794)
          (name "~" (effects (font (size 1.27 1.27))))
          (number "1" (effects (font (size 1.27 1.27))))
        )
        (pin passive line (at 0 -3.81 90) (length 2.794)
          (name "~" (effects (font (size 1.27 1.27))))
          (number "2" (effects (font (size 1.27 1.27))))
        )
      )
    )
    (symbol "Device:R_US" (pin_numbers hide) (pin_names (offset 0)) (in_bom yes) (on_board yes)
      (property "Reference" "R" (at 2.54 0 90)
        (effects (font (size 1.27 1.27)))
      )
      (property "Value" "R_US" (at -2.54 0 90)
        (effects (font (size 1.27 1.27)))
      )
      (property "Footprint" "" (at 1.016 -0.254 90)
        (effects (font (size 1.27 1.27)) hide)
      )
      (property "Datasheet" "~" (at 0 0 0)
        (effects (font (size 1.27 1.27)) hide)
      )
      (property "ki_keywords" "R res resistor" (at 0 0 0)
        (effects (font (size 1.27 1.27)) hide)
      )
      (property "ki_description" "Resistor, US symbol" (at 0 0 0)
        (effects (font (size 1.27 1.27)) hide)
      )
      (property "ki_fp_filters" "R_*" (at 0 0 0)
        (effects (font (size 1.27 1.27)) hide)
      )
      (symbol "R_US_0_1"
        (polyline
          (pts
            (xy 0 -2.286)
            (xy 0 -2.54)
          )
          (stroke (width 0) (type default))
          (fill (type none))
        )
        (polyline
          (pts
            (xy 0 2.286)
            (xy 0 2.54)
          )
          (stroke (width 0) (type default))
          (fill (type none))
        )
        (polyline
          (pts
            (xy 0 -0.762)
            (xy 1.016 -1.143)
            (xy 0 -1.524)
            (xy -1.016 -1.905)
            (xy 0 -2.286)
          )
          (stroke (width 0) (type default))
          (fill (type none))
        )
        (polyline
          (pts
            (xy 0 0.762)
            (xy 1.016 0.381)
            (xy 0 0)
            (xy -1.016 -0.381)
            (xy 0 -0.762)
          )
          (stroke (width 0) (type default))
          (fill (type none))
        )
        (polyline
          (pts
            (xy 0 2.286)
            (xy 1.016 1.905)
            (xy 0 1.524)
            (xy -1.016 1.143)
            (xy 0 0.762)
          )
          (stroke (width 0) (type default))
          (fill (type none))
        )
      )
      (symbol "R_US_1_1"
        (pin passive line (at 0 3.81 270) (length 1.27)
          (name "~" (effects (font (size 1.27 1.27))))
          (number "1" (effects (font (size 1.27 1.27))))
        )
        (pin passive line (at 0 -3.81 90) (length 1.27)
          (name "~" (effects (font (size 1.27 1.27))))
          (number "2" (effects (font (size 1.27 1.27))))
        )
      )
    )
    (symbol "MCU_ST_STM32F0:STM32F051C6Tx" (in_bom yes) (on_board yes)
      (property "Reference" "U" (at -12.7 41.91 0)
        (effects (font (size 1.27 1.27)) (justify left))
      )
      (property "Value" "STM32F051C6Tx" (at 7.62 41.91 0)
        (effects (font (size 1.27 1.27)) (justify left))
      )
      (property "Footprint" "Package_QFP:LQFP-48_7x7mm_P0.5mm" (at -12.7 -38.1 0)
        (effects (font (size 1.27 1.27)) (justify right) hide)
      )
      (property "Datasheet" "https://www.st.com/resource/en/datasheet/stm32f051c6.pdf" (at 0 0 0)
        (effects (font (size 1.27 1.27)) hide)
      )
      (property "ki_locked" "" (at 0 0 0)
        (effects (font (size 1.27 1.27)))
      )
      (property "ki_keywords" "Arm Cortex-M0 STM32F0 STM32F0x1" (at 0 0 0)
        (effects (font (size 1.27 1.27)) hide)
      )
      (property "ki_description" "STMicroelectronics Arm Cortex-M0 MCU, 32KB flash, 8KB RAM, 48 MHz, 2.0-3.6V, 39 GPIO, LQFP48" (at 0 0 0)
        (effects (font (size 1.27 1.27)) hide)
      )
      (property "ki_fp_filters" "LQFP*7x7mm*P0.5mm*" (at 0 0 0)
        (effects (font (size 1.27 1.27)) hide)
      )
      (symbol "STM32F051C6Tx_0_1"
        (rectangle (start -12.7 -38.1) (end 12.7 40.64)
          (stroke (width 0.254) (type default))
          (fill (type background))
        )
      )
      (symbol "STM32F051C6Tx_1_1"
        (pin power_in line (at -2.54 43.18 270) (length 2.54)
          (name "VBAT" (effects (font (size 1.27 1.27))))
          (number "1" (effects (font (size 1.27 1.27))))
        )
        (pin bidirectional line (at 15.24 38.1 180) (length 2.54)
          (name "PA0" (effects (font (size 1.27 1.27))))
          (number "10" (effects (font (size 1.27 1.27))))
          (alternate "ADC_IN0" bidirectional line)
          (alternate "COMP1_INM" bidirectional line)
          (alternate "COMP1_OUT" bidirectional line)
          (alternate "RTC_TAMP2" bidirectional line)
          (alternate "SYS_WKUP1" bidirectional line)
          (alternate "TIM2_CH1" bidirectional line)
          (alternate "TIM2_ETR" bidirectional line)
          (alternate "TSC_G1_IO1" bidirectional line)
          (alternate "USART2_CTS" bidirectional line)
        )
        (pin bidirectional line (at 15.24 35.56 180) (length 2.54)
          (name "PA1" (effects (font (size 1.27 1.27))))
          (number "11" (effects (font (size 1.27 1.27))))
          (alternate "ADC_IN1" bidirectional line)
          (alternate "COMP1_INP" bidirectional line)
          (alternate "TIM2_CH2" bidirectional line)
          (alternate "TSC_G1_IO2" bidirectional line)
          (alternate "USART2_DE" bidirectional line)
          (alternate "USART2_RTS" bidirectional line)
        )
        (pin bidirectional line (at 15.24 33.02 180) (length 2.54)
          (name "PA2" (effects (font (size 1.27 1.27))))
          (number "12" (effects (font (size 1.27 1.27))))
          (alternate "ADC_IN2" bidirectional line)
          (alternate "COMP2_INM" bidirectional line)
          (alternate "COMP2_OUT" bidirectional line)
          (alternate "TIM15_CH1" bidirectional line)
          (alternate "TIM2_CH3" bidirectional line)
          (alternate "TSC_G1_IO3" bidirectional line)
          (alternate "USART2_TX" bidirectional line)
        )
        (pin bidirectional line (at 15.24 30.48 180) (length 2.54)
          (name "PA3" (effects (font (size 1.27 1.27))))
          (number "13" (effects (font (size 1.27 1.27))))
          (alternate "ADC_IN3" bidirectional line)
          (alternate "COMP2_INP" bidirectional line)
          (alternate "TIM15_CH2" bidirectional line)
          (alternate "TIM2_CH4" bidirectional line)
          (alternate "TSC_G1_IO4" bidirectional line)
          (alternate "USART2_RX" bidirectional line)
        )
        (pin bidirectional line (at 15.24 27.94 180) (length 2.54)
          (name "PA4" (effects (font (size 1.27 1.27))))
          (number "14" (effects (font (size 1.27 1.27))))
          (alternate "ADC_IN4" bidirectional line)
          (alternate "COMP1_INM" bidirectional line)
          (alternate "COMP2_INM" bidirectional line)
          (alternate "DAC1_OUT1" bidirectional line)
          (alternate "I2S1_WS" bidirectional line)
          (alternate "SPI1_NSS" bidirectional line)
          (alternate "TIM14_CH1" bidirectional line)
          (alternate "TSC_G2_IO1" bidirectional line)
          (alternate "USART2_CK" bidirectional line)
        )
        (pin bidirectional line (at 15.24 25.4 180) (length 2.54)
          (name "PA5" (effects (font (size 1.27 1.27))))
          (number "15" (effects (font (size 1.27 1.27))))
          (alternate "ADC_IN5" bidirectional line)
          (alternate "CEC" bidirectional line)
          (alternate "COMP1_INM" bidirectional line)
          (alternate "COMP2_INM" bidirectional line)
          (alternate "I2S1_CK" bidirectional line)
          (alternate "SPI1_SCK" bidirectional line)
          (alternate "TIM2_CH1" bidirectional line)
          (alternate "TIM2_ETR" bidirectional line)
          (alternate "TSC_G2_IO2" bidirectional line)
        )
        (pin bidirectional line (at 15.24 22.86 180) (length 2.54)
          (name "PA6" (effects (font (size 1.27 1.27))))
          (number "16" (effects (font (size 1.27 1.27))))
          (alternate "ADC_IN6" bidirectional line)
          (alternate "COMP1_OUT" bidirectional line)
          (alternate "I2S1_MCK" bidirectional line)
          (alternate "SPI1_MISO" bidirectional line)
          (alternate "TIM16_CH1" bidirectional line)
          (alternate "TIM1_BKIN" bidirectional line)
          (alternate "TIM3_CH1" bidirectional line)
          (alternate "TSC_G2_IO3" bidirectional line)
        )
        (pin bidirectional line (at 15.24 20.32 180) (length 2.54)
          (name "PA7" (effects (font (size 1.27 1.27))))
          (number "17" (effects (font (size 1.27 1.27))))
          (alternate "ADC_IN7" bidirectional line)
          (alternate "COMP2_OUT" bidirectional line)
          (alternate "I2S1_SD" bidirectional line)
          (alternate "SPI1_MOSI" bidirectional line)
          (alternate "TIM14_CH1" bidirectional line)
          (alternate "TIM17_CH1" bidirectional line)
          (alternate "TIM1_CH1N" bidirectional line)
          (alternate "TIM3_CH2" bidirectional line)
          (alternate "TSC_G2_IO4" bidirectional line)
        )
        (pin bidirectional line (at -15.24 5.08 0) (length 2.54)
          (name "PB0" (effects (font (size 1.27 1.27))))
          (number "18" (effects (font (size 1.27 1.27))))
          (alternate "ADC_IN8" bidirectional line)
          (alternate "TIM1_CH2N" bidirectional line)
          (alternate "TIM3_CH3" bidirectional line)
          (alternate "TSC_G3_IO2" bidirectional line)
        )
        (pin bidirectional line (at -15.24 2.54 0) (length 2.54)
          (name "PB1" (effects (font (size 1.27 1.27))))
          (number "19" (effects (font (size 1.27 1.27))))
          (alternate "ADC_IN9" bidirectional line)
          (alternate "TIM14_CH1" bidirectional line)
          (alternate "TIM1_CH3N" bidirectional line)
          (alternate "TIM3_CH4" bidirectional line)
          (alternate "TSC_G3_IO3" bidirectional line)
        )
        (pin bidirectional line (at -15.24 15.24 0) (length 2.54)
          (name "PC13" (effects (font (size 1.27 1.27))))
          (number "2" (effects (font (size 1.27 1.27))))
          (alternate "RTC_OUT_ALARM" bidirectional line)
          (alternate "RTC_OUT_CALIB" bidirectional line)
          (alternate "RTC_TAMP1" bidirectional line)
          (alternate "RTC_TS" bidirectional line)
          (alternate "SYS_WKUP2" bidirectional line)
        )
        (pin bidirectional line (at -15.24 0 0) (length 2.54)
          (name "PB2" (effects (font (size 1.27 1.27))))
          (number "20" (effects (font (size 1.27 1.27))))
          (alternate "TSC_G3_IO4" bidirectional line)
        )
        (pin bidirectional line (at -15.24 -20.32 0) (length 2.54)
          (name "PB10" (effects (font (size 1.27 1.27))))
          (number "21" (effects (font (size 1.27 1.27))))
          (alternate "CEC" bidirectional line)
          (alternate "TIM2_CH3" bidirectional line)
          (alternate "TSC_SYNC" bidirectional line)
        )
        (pin bidirectional line (at -15.24 -22.86 0) (length 2.54)
          (name "PB11" (effects (font (size 1.27 1.27))))
          (number "22" (effects (font (size 1.27 1.27))))
          (alternate "TIM2_CH4" bidirectional line)
          (alternate "TSC_G6_IO1" bidirectional line)
        )
        (pin power_in line (at 0 -40.64 90) (length 2.54)
          (name "VSS" (effects (font (size 1.27 1.27))))
          (number "23" (effects (font (size 1.27 1.27))))
        )
        (pin power_in line (at 0 43.18 270) (length 2.54)
          (name "VDD" (effects (font (size 1.27 1.27))))
          (number "24" (effects (font (size 1.27 1.27))))
        )
        (pin bidirectional line (at -15.24 -25.4 0) (length 2.54)
          (name "PB12" (effects (font (size 1.27 1.27))))
          (number "25" (effects (font (size 1.27 1.27))))
          (alternate "TIM1_BKIN" bidirectional line)
          (alternate "TSC_G6_IO2" bidirectional line)
        )
        (pin bidirectional line (at -15.24 -27.94 0) (length 2.54)
          (name "PB13" (effects (font (size 1.27 1.27))))
          (number "26" (effects (font (size 1.27 1.27))))
          (alternate "TIM1_CH1N" bidirectional line)
          (alternate "TSC_G6_IO3" bidirectional line)
        )
        (pin bidirectional line (at -15.24 -30.48 0) (length 2.54)
          (name "PB14" (effects (font (size 1.27 1.27))))
          (number "27" (effects (font (size 1.27 1.27))))
          (alternate "TIM15_CH1" bidirectional line)
          (alternate "TIM1_CH2N" bidirectional line)
          (alternate "TSC_G6_IO4" bidirectional line)
        )
        (pin bidirectional line (at -15.24 -33.02 0) (length 2.54)
          (name "PB15" (effects (font (size 1.27 1.27))))
          (number "28" (effects (font (size 1.27 1.27))))
          (alternate "RTC_REFIN" bidirectional line)
          (alternate "TIM15_CH1N" bidirectional line)
          (alternate "TIM15_CH2" bidirectional line)
          (alternate "TIM1_CH3N" bidirectional line)
        )
        (pin bidirectional line (at 15.24 17.78 180) (length 2.54)
          (name "PA8" (effects (font (size 1.27 1.27))))
          (number "29" (effects (font (size 1.27 1.27))))
          (alternate "RCC_MCO" bidirectional line)
          (alternate "TIM1_CH1" bidirectional line)
          (alternate "USART1_CK" bidirectional line)
        )
        (pin bidirectional line (at -15.24 12.7 0) (length 2.54)
          (name "PC14" (effects (font (size 1.27 1.27))))
          (number "3" (effects (font (size 1.27 1.27))))
          (alternate "RCC_OSC32_IN" bidirectional line)
        )
        (pin bidirectional line (at 15.24 15.24 180) (length 2.54)
          (name "PA9" (effects (font (size 1.27 1.27))))
          (number "30" (effects (font (size 1.27 1.27))))
          (alternate "DAC1_EXTI9" bidirectional line)
          (alternate "TIM15_BKIN" bidirectional line)
          (alternate "TIM1_CH2" bidirectional line)
          (alternate "TSC_G4_IO1" bidirectional line)
          (alternate "USART1_TX" bidirectional line)
        )
        (pin bidirectional line (at 15.24 12.7 180) (length 2.54)
          (name "PA10" (effects (font (size 1.27 1.27))))
          (number "31" (effects (font (size 1.27 1.27))))
          (alternate "TIM17_BKIN" bidirectional line)
          (alternate "TIM1_CH3" bidirectional line)
          (alternate "TSC_G4_IO2" bidirectional line)
          (alternate "USART1_RX" bidirectional line)
        )
        (pin bidirectional line (at 15.24 10.16 180) (length 2.54)
          (name "PA11" (effects (font (size 1.27 1.27))))
          (number "32" (effects (font (size 1.27 1.27))))
          (alternate "COMP1_OUT" bidirectional line)
          (alternate "TIM1_CH4" bidirectional line)
          (alternate "TSC_G4_IO3" bidirectional line)
          (alternate "USART1_CTS" bidirectional line)
        )
        (pin bidirectional line (at 15.24 7.62 180) (length 2.54)
          (name "PA12" (effects (font (size 1.27 1.27))))
          (number "33" (effects (font (size 1.27 1.27))))
          (alternate "COMP2_OUT" bidirectional line)
          (alternate "TIM1_ETR" bidirectional line)
          (alternate "TSC_G4_IO4" bidirectional line)
          (alternate "USART1_DE" bidirectional line)
          (alternate "USART1_RTS" bidirectional line)
        )
        (pin bidirectional line (at 15.24 5.08 180) (length 2.54)
          (name "PA13" (effects (font (size 1.27 1.27))))
          (number "34" (effects (font (size 1.27 1.27))))
          (alternate "IR_OUT" bidirectional line)
          (alternate "SYS_SWDIO" bidirectional line)
        )
        (pin bidirectional line (at -15.24 22.86 0) (length 2.54)
          (name "PF6" (effects (font (size 1.27 1.27))))
          (number "35" (effects (font (size 1.27 1.27))))
        )
        (pin bidirectional line (at -15.24 20.32 0) (length 2.54)
          (name "PF7" (effects (font (size 1.27 1.27))))
          (number "36" (effects (font (size 1.27 1.27))))
        )
        (pin bidirectional line (at 15.24 2.54 180) (length 2.54)
          (name "PA14" (effects (font (size 1.27 1.27))))
          (number "37" (effects (font (size 1.27 1.27))))
          (alternate "SYS_SWCLK" bidirectional line)
          (alternate "USART2_TX" bidirectional line)
        )
        (pin bidirectional line (at 15.24 0 180) (length 2.54)
          (name "PA15" (effects (font (size 1.27 1.27))))
          (number "38" (effects (font (size 1.27 1.27))))
          (alternate "I2S1_WS" bidirectional line)
          (alternate "SPI1_NSS" bidirectional line)
          (alternate "TIM2_CH1" bidirectional line)
          (alternate "TIM2_ETR" bidirectional line)
          (alternate "USART2_RX" bidirectional line)
        )
        (pin bidirectional line (at -15.24 -2.54 0) (length 2.54)
          (name "PB3" (effects (font (size 1.27 1.27))))
          (number "39" (effects (font (size 1.27 1.27))))
          (alternate "I2S1_CK" bidirectional line)
          (alternate "SPI1_SCK" bidirectional line)
          (alternate "TIM2_CH2" bidirectional line)
          (alternate "TSC_G5_IO1" bidirectional line)
        )
        (pin bidirectional line (at -15.24 10.16 0) (length 2.54)
          (name "PC15" (effects (font (size 1.27 1.27))))
          (number "4" (effects (font (size 1.27 1.27))))
          (alternate "RCC_OSC32_OUT" bidirectional line)
        )
        (pin bidirectional line (at -15.24 -5.08 0) (length 2.54)
          (name "PB4" (effects (font (size 1.27 1.27))))
          (number "40" (effects (font (size 1.27 1.27))))
          (alternate "I2S1_MCK" bidirectional line)
          (alternate "SPI1_MISO" bidirectional line)
          (alternate "TIM3_CH1" bidirectional line)
          (alternate "TSC_G5_IO2" bidirectional line)
        )
        (pin bidirectional line (at -15.24 -7.62 0) (length 2.54)
          (name "PB5" (effects (font (size 1.27 1.27))))
          (number "41" (effects (font (size 1.27 1.27))))
          (alternate "I2C1_SMBA" bidirectional line)
          (alternate "I2S1_SD" bidirectional line)
          (alternate "SPI1_MOSI" bidirectional line)
          (alternate "TIM16_BKIN" bidirectional line)
          (alternate "TIM3_CH2" bidirectional line)
        )
        (pin bidirectional line (at -15.24 -10.16 0) (length 2.54)
          (name "PB6" (effects (font (size 1.27 1.27))))
          (number "42" (effects (font (size 1.27 1.27))))
          (alternate "I2C1_SCL" bidirectional line)
          (alternate "TIM16_CH1N" bidirectional line)
          (alternate "TSC_G5_IO3" bidirectional line)
          (alternate "USART1_TX" bidirectional line)
        )
        (pin bidirectional line (at -15.24 -12.7 0) (length 2.54)
          (name "PB7" (effects (font (size 1.27 1.27))))
          (number "43" (effects (font (size 1.27 1.27))))
          (alternate "I2C1_SDA" bidirectional line)
          (alternate "TIM17_CH1N" bidirectional line)
          (alternate "TSC_G5_IO4" bidirectional line)
          (alternate "USART1_RX" bidirectional line)
        )
        (pin input line (at -15.24 33.02 0) (length 2.54)
          (name "BOOT0" (effects (font (size 1.27 1.27))))
          (number "44" (effects (font (size 1.27 1.27))))
        )
        (pin bidirectional line (at -15.24 -15.24 0) (length 2.54)
          (name "PB8" (effects (font (size 1.27 1.27))))
          (number "45" (effects (font (size 1.27 1.27))))
          (alternate "CEC" bidirectional line)
          (alternate "I2C1_SCL" bidirectional line)
          (alternate "TIM16_CH1" bidirectional line)
          (alternate "TSC_SYNC" bidirectional line)
        )
        (pin bidirectional line (at -15.24 -17.78 0) (length 2.54)
          (name "PB9" (effects (font (size 1.27 1.27))))
          (number "46" (effects (font (size 1.27 1.27))))
          (alternate "DAC1_EXTI9" bidirectional line)
          (alternate "I2C1_SDA" bidirectional line)
          (alternate "IR_OUT" bidirectional line)
          (alternate "TIM17_CH1" bidirectional line)
        )
        (pin passive line (at 0 -40.64 90) (length 2.54) hide
          (name "VSS" (effects (font (size 1.27 1.27))))
          (number "47" (effects (font (size 1.27 1.27))))
        )
        (pin power_in line (at 2.54 43.18 270) (length 2.54)
          (name "VDD" (effects (font (size 1.27 1.27))))
          (number "48" (effects (font (size 1.27 1.27))))
        )
        (pin bidirectional line (at -15.24 27.94 0) (length 2.54)
          (name "PF0" (effects (font (size 1.27 1.27))))
          (number "5" (effects (font (size 1.27 1.27))))
          (alternate "RCC_OSC_IN" bidirectional line)
        )
        (pin bidirectional line (at -15.24 25.4 0) (length 2.54)
          (name "PF1" (effects (font (size 1.27 1.27))))
          (number "6" (effects (font (size 1.27 1.27))))
          (alternate "RCC_OSC_OUT" bidirectional line)
        )
        (pin input line (at -15.24 38.1 0) (length 2.54)
          (name "NRST" (effects (font (size 1.27 1.27))))
          (number "7" (effects (font (size 1.27 1.27))))
        )
        (pin power_in line (at 2.54 -40.64 90) (length 2.54)
          (name "VSSA" (effects (font (size 1.27 1.27))))
          (number "8" (effects (font (size 1.27 1.27))))
        )
        (pin power_in line (at 5.08 43.18 270) (length 2.54)
          (name "VDDA" (effects (font (size 1.27 1.27))))
          (number "9" (effects (font (size 1.27 1.27))))
        )
      )
    )
    (symbol "Switch:SW_Push" (pin_numbers hide) (pin_names (offset 1.016) hide) (in_bom yes) (on_board yes)
      (property "Reference" "SW" (at 1.27 2.54 0)
        (effects (font (size 1.27 1.27)) (justify left))
      )
      (property "Value" "SW_Push" (at 0 -1.524 0)
        (effects (font (size 1.27 1.27)))
      )
      (property "Footprint" "" (at 0 5.08 0)
        (effects (font (size 1.27 1.27)) hide)
      )
      (property "Datasheet" "~" (at 0 5.08 0)
        (effects (font (size 1.27 1.27)) hide)
      )
      (property "ki_keywords" "switch normally-open pushbutton push-button" (at 0 0 0)
        (effects (font (size 1.27 1.27)) hide)
      )
      (property "ki_description" "Push button switch, generic, two pins" (at 0 0 0)
        (effects (font (size 1.27 1.27)) hide)
      )
      (symbol "SW_Push_0_1"
        (circle (center -2.032 0) (radius 0.508)
          (stroke (width 0) (type default))
          (fill (type none))
        )
        (polyline
          (pts
            (xy 0 1.27)
            (xy 0 3.048)
          )
          (stroke (width 0) (type default))
          (fill (type none))
        )
        (polyline
          (pts
            (xy 2.54 1.27)
            (xy -2.54 1.27)
          )
          (stroke (width 0) (type default))
          (fill (type none))
        )
        (circle (center 2.032 0) (radius 0.508)
          (stroke (width 0) (type default))
          (fill (type none))
        )
        (pin passive line (at -5.08 0 0) (length 2.54)
          (name "1" (effects (font (size 1.27 1.27))))
          (number "1" (effects (font (size 1.27 1.27))))
        )
        (pin passive line (at 5.08 0 180) (length 2.54)
          (name "2" (effects (font (size 1.27 1.27))))
          (number "2" (effects (font (size 1.27 1.27))))
        )
      )
    )
    (symbol "power:+3V3" (power) (pin_names (offset 0)) (in_bom yes) (on_board yes)
      (property "Reference" "#PWR" (at 0 -3.81 0)
        (effects (font (size 1.27 1.27)) hide)
      )
      (property "Value" "+3V3" (at 0 3.556 0)
        (effects (font (size 1.27 1.27)))
      )
      (property "Footprint" "" (at 0 0 0)
        (effects (font (size 1.27 1.27)) hide)
      )
      (property "Datasheet" "" (at 0 0 0)
        (effects (font (size 1.27 1.27)) hide)
      )
      (property "ki_keywords" "global power" (at 0 0 0)
        (effects (font (size 1.27 1.27)) hide)
      )
      (property "ki_description" "Power symbol creates a global label with name \"+3V3\"" (at 0 0 0)
        (effects (font (size 1.27 1.27)) hide)
      )
      (symbol "+3V3_0_1"
        (polyline
          (pts
            (xy -0.762 1.27)
            (xy 0 2.54)
          )
          (stroke (width 0) (type default))
          (fill (type none))
        )
        (polyline
          (pts
            (xy 0 0)
            (xy 0 2.54)
          )
          (stroke (width 0) (type default))
          (fill (type none))
        )
        (polyline
          (pts
            (xy 0 2.54)
            (xy 0.762 1.27)
          )
          (stroke (width 0) (type default))
          (fill (type none))
        )
      )
      (symbol "+3V3_1_1"
        (pin power_in line (at 0 0 90) (length 0) hide
          (name "+3V3" (effects (font (size 1.27 1.27))))
          (number "1" (effects (font (size 1.27 1.27))))
        )
      )
    )
    (symbol "power:GND" (power) (pin_names (offset 0)) (in_bom yes) (on_board yes)
      (property "Reference" "#PWR" (at 0 -6.35 0)
        (effects (font (size 1.27 1.27)) hide)
      )
      (property "Value" "GND" (at 0 -3.81 0)
        (effects (font (size 1.27 1.27)))
      )
      (property "Footprint" "" (at 0 0 0)
        (effects (font (size 1.27 1.27)) hide)
      )
      (property "Datasheet" "" (at 0 0 0)
        (effects (font (size 1.27 1.27)) hide)
      )
      (property "ki_keywords" "global power" (at 0 0 0)
        (effects (font (size 1.27 1.27)) hide)
      )
      (property "ki_description" "Power symbol creates a global label with name \"GND\" , ground" (at 0 0 0)
        (effects (font (size 1.27 1.27)) hide)
      )
      (symbol "GND_0_1"
        (polyline
          (pts
            (xy 0 0)
            (xy 0 -1.27)
            (xy 1.27 -1.27)
            (xy 0 -2.54)
            (xy -1.27 -1.27)
            (xy 0 -1.27)
          )
          (stroke (width 0) (type default))
          (fill (type none))
        )
      )
      (symbol "GND_1_1"
        (pin power_in line (at 0 0 270) (length 0) hide
          (name "GND" (effects (font (size 1.27 1.27))))
          (number "1" (effects (font (size 1.27 1.27))))
        )
      )
    )
    (symbol "power:PWR_FLAG" (power) (pin_numbers hide) (pin_names (offset 0) hide) (in_bom yes) (on_board yes)
      (property "Reference" "#FLG" (at 0 1.905 0)
        (effects (font (size 1.27 1.27)) hide)
      )
      (property "Value" "PWR_FLAG" (at 0 3.81 0)
        (effects (font (size 1.27 1.27)))
      )
      (property "Footprint" "" (at 0 0 0)
        (effects (font (size 1.27 1.27)) hide)
      )
      (property "Datasheet" "~" (at 0 0 0)
        (effects (font (size 1.27 1.27)) hide)
      )
      (property "ki_keywords" "power-flag" (at 0 0 0)
        (effects (font (size 1.27 1.27)) hide)
      )
      (property "ki_description" "Special symbol for telling ERC where power comes from" (at 0 0 0)
        (effects (font (size 1.27 1.27)) hide)
      )
      (symbol "PWR_FLAG_0_0"
        (pin power_out line (at 0 0 90) (length 0)
          (name "pwr" (effects (font (size 1.27 1.27))))
          (number "1" (effects (font (size 1.27 1.27))))
        )
      )
      (symbol "PWR_FLAG_0_1"
        (polyline
          (pts
            (xy 0 0)
            (xy 0 1.27)
            (xy -1.016 1.905)
            (xy 0 2.54)
            (xy 1.016 1.905)
            (xy 0 1.27)
          )
          (stroke (width 0) (type default))
          (fill (type none))
        )
      )
    )
  )

  (junction (at 219.71 62.23) (diameter 0) (color 0 0 0 0)
    (uuid 0d7c352a-b944-4a92-bc12-f7a14e6f1fce)
  )
  (junction (at 259.08 52.07) (diameter 0) (color 0 0 0 0)
    (uuid 1fe1d893-fb06-462b-98c9-5fff8fe01161)
  )
  (junction (at 218.44 64.77) (diameter 0) (color 0 0 0 0)
    (uuid 37adeaae-0280-44e3-b0f3-75efad72362d)
  )
  (junction (at 165.1 62.23) (diameter 0) (color 0 0 0 0)
    (uuid a7c32eec-07dd-4542-a4e7-a24bb459be49)
  )
  (junction (at 63.5 36.7792) (diameter 0) (color 0 0 0 0)
    (uuid b4fa3e58-42f4-4f39-b8ad-2f48c6e75f27)
  )
  (junction (at 259.08 49.53) (diameter 0) (color 0 0 0 0)
    (uuid d818e5dd-2ef0-417f-8c16-97a26a5b7d27)
  )
  (junction (at 77.47 36.83) (diameter 0) (color 0 0 0 0)
    (uuid ed3fd904-9e58-4dd8-84b0-c92230fcf6d4)
  )

  (no_connect (at 227.33 77.47) (uuid 27f547f9-46bb-47db-b570-64379737c237))
  (no_connect (at 227.33 57.15) (uuid 8332efb3-1f82-4f44-944b-9bcb363448bc))
  (no_connect (at 257.81 74.93) (uuid 96277bee-5578-471d-a8d9-331bf7d08dfe))
  (no_connect (at 227.33 69.85) (uuid 9c7374b1-f357-4c6c-8985-2603d82f8dde))
  (no_connect (at 257.81 72.39) (uuid bfbc9292-00ae-4a2b-8406-e5adc6aec047))
  (no_connect (at 227.33 74.93) (uuid c8d7af3f-546f-4287-be44-c85de9cee1d0))
  (no_connect (at 227.33 72.39) (uuid e253bc3c-4cde-449a-b50f-f1e005ed4e96))
  (no_connect (at 257.81 69.85) (uuid fe213069-6734-400a-8ce7-0727e0ad912d))

  (wire (pts (xy 140.97 97.79) (xy 153.67 97.79))
    (stroke (width 0) (type default))
    (uuid 01b42997-8fa4-450a-b72b-1bd0cf4971b6)
  )
  (wire (pts (xy 213.36 62.23) (xy 213.36 59.69))
    (stroke (width 0) (type default))
    (uuid 01c50265-9180-4c87-9f78-0f4dbd20c5fb)
  )
  (wire (pts (xy 205.74 87.63) (xy 205.74 88.9))
    (stroke (width 0) (type default))
    (uuid 0281ecd9-0e4d-4a26-8887-0fce599e9b54)
  )
  (wire (pts (xy 70.358 34.2392) (xy 70.358 36.6776))
    (stroke (width 0) (type default))
    (uuid 0695df8d-03d9-4e37-8a55-1a285f1b7b5d)
  )
  (wire (pts (xy 148.6408 64.7192) (xy 148.6408 64.77))
    (stroke (width 0) (type default))
    (uuid 072cb8fb-6d13-40ae-aa96-5879dfb3171d)
  )
  (wire (pts (xy 259.08 52.07) (xy 264.16 52.07))
    (stroke (width 0) (type default))
    (uuid 08a4a9ba-6a3a-445b-aa25-0692d8d9b504)
  )
  (wire (pts (xy 101.6 62.23) (xy 101.6 36.83))
    (stroke (width 0) (type default))
    (uuid 09df87b0-d4f6-44b5-8bb0-e24c6ef81b8c)
  )
  (wire (pts (xy 257.81 85.09) (xy 261.62 85.09))
    (stroke (width 0) (type default))
    (uuid 14d7523e-dd84-47d8-b4af-7fd79279d2c9)
  )
  (wire (pts (xy 130.81 50.8) (xy 130.81 57.15))
    (stroke (width 0) (type default))
    (uuid 1de01631-3986-4526-95bf-31d5ae6e2ed4)
  )
  (wire (pts (xy 148.6408 67.2592) (xy 148.6408 67.31))
    (stroke (width 0) (type default))
    (uuid 26ff5cb8-b1d7-44d4-9b3d-ecfba70bfb3c)
  )
  (wire (pts (xy 128.27 140.97) (xy 128.27 146.05))
    (stroke (width 0) (type default))
    (uuid 29fc4089-ccdd-4e69-8e3f-f8f197860b28)
  )
  (wire (pts (xy 140.97 95.25) (xy 153.67 95.25))
    (stroke (width 0) (type default))
    (uuid 2a5a5af3-9542-4c73-80c1-97f1b230c841)
  )
  (wire (pts (xy 195.58 120.65) (xy 204.47 120.65))
    (stroke (width 0) (type default))
    (uuid 365f09f0-b20c-4b20-80f7-f861c10d19ca)
  )
  (wire (pts (xy 219.71 62.23) (xy 213.36 62.23))
    (stroke (width 0) (type default))
    (uuid 3e9c7477-0350-4cba-a5bf-50d1cc085ac9)
  )
  (wire (pts (xy 110.49 62.23) (xy 101.6 62.23))
    (stroke (width 0) (type default))
    (uuid 4087c60a-6555-4b4d-b27c-601a2f302e1a)
  )
  (wire (pts (xy 140.97 64.77) (xy 148.6408 64.77))
    (stroke (width 0) (type default))
    (uuid 4a3c7315-e996-4c8a-9bbc-b41118fd7b60)
  )
  (wire (pts (xy 280.67 52.07) (xy 280.67 57.15))
    (stroke (width 0) (type default))
    (uuid 5321f30d-32f2-40e3-ac71-cabf4a9e0df4)
  )
  (wire (pts (xy 74.93 34.29) (xy 74.93 36.83))
    (stroke (width 0) (type default))
    (uuid 544206f0-86ab-44f3-a2c7-e6f41ad58df2)
  )
  (wire (pts (xy 70.358 36.7792) (xy 63.5 36.7792))
    (stroke (width 0) (type default))
    (uuid 5619d19e-8db8-47a8-baec-a6ade817a7d7)
  )
  (wire (pts (xy 182.88 92.71) (xy 182.88 105.41))
    (stroke (width 0) (type default))
    (uuid 5782eb02-2401-4730-9799-4a12b27fdd28)
  )
  (wire (pts (xy 195.58 118.11) (xy 204.47 118.11))
    (stroke (width 0) (type default))
    (uuid 579e8cab-a157-4b36-91e0-dd152d684ad5)
  )
  (wire (pts (xy 182.88 135.89) (xy 182.88 140.97))
    (stroke (width 0) (type default))
    (uuid 5ff05118-2fda-4a66-a284-208e09a1a810)
  )
  (wire (pts (xy 140.97 72.39) (xy 152.4 72.39))
    (stroke (width 0) (type default))
    (uuid 61d7aa43-2b24-4476-9d0f-2f29926bfaea)
  )
  (wire (pts (xy 261.62 85.09) (xy 261.62 88.9))
    (stroke (width 0) (type default))
    (uuid 64c26d6f-fc9b-48f4-bc22-0bd00185909d)
  )
  (wire (pts (xy 207.01 91.44) (xy 203.2 91.44))
    (stroke (width 0) (type default))
    (uuid 65b6f808-c451-4c86-b583-c1d327f152a2)
  )
  (wire (pts (xy 70.358 36.7792) (xy 70.358 36.83))
    (stroke (width 0) (type default))
    (uuid 680d11ed-cf9c-4269-a6b0-3b00babbd710)
  )
  (wire (pts (xy 77.47 36.83) (xy 101.6 36.83))
    (stroke (width 0) (type default))
    (uuid 6a5b8876-f977-481a-b7df-59a56b380ab8)
  )
  (wire (pts (xy 63.5 34.29) (xy 63.5 36.7792))
    (stroke (width 0) (type default))
    (uuid 6a72a9b4-540b-452c-8d84-d31b8bbfb88f)
  )
  (wire (pts (xy 266.7 66.04) (xy 267.97 66.04))
    (stroke (width 0) (type default))
    (uuid 6c625d20-7893-4097-b2e4-d4025e4cc87a)
  )
  (wire (pts (xy 140.97 87.63) (xy 151.13 87.63))
    (stroke (width 0) (type default))
    (uuid 6dd96d5a-3b06-4a06-855b-3adc7450f751)
  )
  (wire (pts (xy 165.1 62.23) (xy 182.88 62.23))
    (stroke (width 0) (type default))
    (uuid 76b1ab23-4958-48f9-925f-f43f7e5f6512)
  )
  (wire (pts (xy 125.73 140.97) (xy 125.73 146.05))
    (stroke (width 0) (type default))
    (uuid 76ba7631-84c3-473e-af83-f205d3aaf9c6)
  )
  (wire (pts (xy 205.74 88.9) (xy 203.2 88.9))
    (stroke (width 0) (type default))
    (uuid 7baa3a1a-11da-45c7-8036-7c76313cf16c)
  )
  (wire (pts (xy 165.1 50.8) (xy 165.1 62.23))
    (stroke (width 0) (type default))
    (uuid 7bd641a1-0391-4f07-88ff-e6b17a17b838)
  )
  (wire (pts (xy 209.55 64.77) (xy 218.44 64.77))
    (stroke (width 0) (type default))
    (uuid 7d428acf-5e6a-4e8d-9b08-a50f25d35ae6)
  )
  (wire (pts (xy 125.73 50.8) (xy 125.73 57.15))
    (stroke (width 0) (type default))
    (uuid 7e161ebb-6b47-474a-b4a4-a7a955ae6312)
  )
  (wire (pts (xy 67.31 34.29) (xy 63.5 34.29))
    (stroke (width 0) (type default))
    (uuid 846b2819-eab6-476a-b088-1dfe35fe2529)
  )
  (wire (pts (xy 259.08 36.83) (xy 259.08 49.53))
    (stroke (width 0) (type default))
    (uuid 8a7bc8fd-bd43-498e-b819-4f59711bd6cd)
  )
  (wire (pts (xy 97.79 48.26) (xy 81.28 48.26))
    (stroke (width 0) (type default))
    (uuid 8ddb99ff-cfa9-462b-b03d-fd8cb22887f6)
  )
  (wire (pts (xy 140.97 67.31) (xy 148.6408 67.31))
    (stroke (width 0) (type default))
    (uuid 8fa40d89-7a7a-4b80-bc9a-01d62ab30a66)
  )
  (wire (pts (xy 63.5 36.7792) (xy 63.5 39.37))
    (stroke (width 0) (type default))
    (uuid 90368181-1eae-47f1-9db8-bd5e6f983a6f)
  )
  (wire (pts (xy 207.01 87.63) (xy 205.74 87.63))
    (stroke (width 0) (type default))
    (uuid 90d2f512-db9d-471a-adcc-dac031a03757)
  )
  (wire (pts (xy 259.08 52.07) (xy 259.08 54.61))
    (stroke (width 0) (type default))
    (uuid 9670e2e7-33ec-468a-98cc-73711b0575d4)
  )
  (wire (pts (xy 257.81 64.77) (xy 266.7 64.77))
    (stroke (width 0) (type default))
    (uuid 9da43c2c-f5a1-40f7-a6e7-36fac7db5fb3)
  )
  (wire (pts (xy 227.33 62.23) (xy 219.71 62.23))
    (stroke (width 0) (type default))
    (uuid a0004295-c09a-40ab-81e7-6cabed6b2731)
  )
  (wire (pts (xy 74.93 36.83) (xy 77.47 36.83))
    (stroke (width 0) (type default))
    (uuid ac82d0de-9a76-435a-ad41-e273e60d94d8)
  )
  (wire (pts (xy 218.44 64.77) (xy 218.44 67.31))
    (stroke (width 0) (type default))
    (uuid b673037b-74d4-4d8e-bb07-907ab477bfbf)
  )
  (wire (pts (xy 81.28 48.26) (xy 81.28 52.07))
    (stroke (width 0) (type default))
    (uuid b8edb9cb-3dce-44f8-bab6-1801dff9a9a0)
  )
  (wire (pts (xy 259.08 52.07) (xy 259.08 49.53))
    (stroke (width 0) (type default))
    (uuid b8fa144e-74aa-4ce7-87bb-cfc0d89ce20e)
  )
  (wire (pts (xy 140.97 62.23) (xy 165.1 62.23))
    (stroke (width 0) (type default))
    (uuid be5abf37-8c35-426e-839b-72c18a0a0c30)
  )
  (wire (pts (xy 227.33 64.77) (xy 218.44 64.77))
    (stroke (width 0) (type default))
    (uuid bf97ec6c-4933-4b96-b4c9-0e68c46f5d4f)
  )
  (wire (pts (xy 140.97 85.09) (xy 151.13 85.09))
    (stroke (width 0) (type default))
    (uuid c555ea83-bcc6-4b2e-bd65-e5d766e45478)
  )
  (wire (pts (xy 123.19 50.8) (xy 123.19 57.15))
    (stroke (width 0) (type default))
    (uuid c68cdc4d-f481-4e12-9f34-541105dc6f20)
  )
  (wire (pts (xy 195.58 113.03) (xy 204.47 113.03))
    (stroke (width 0) (type default))
    (uuid c79c8a88-5f17-4f95-b88c-9098e9fc0607)
  )
  (wire (pts (xy 77.47 34.29) (xy 77.47 36.83))
    (stroke (width 0) (type default))
    (uuid d1cf867e-3cf3-451f-9eb9-8bbcfb310a84)
  )
  (wire (pts (xy 97.79 67.31) (xy 97.79 48.26))
    (stroke (width 0) (type default))
    (uuid d4790657-aad3-4198-92ba-f19822e25dc0)
  )
  (wire (pts (xy 212.09 59.69) (xy 213.36 59.69))
    (stroke (width 0) (type default))
    (uuid d5d4a9c0-ef2b-441b-b45d-1893f885a8e8)
  )
  (wire (pts (xy 165.1 36.83) (xy 165.1 43.18))
    (stroke (width 0) (type default))
    (uuid d7f42b45-dc05-4e59-9f98-8acd10834c43)
  )
  (wire (pts (xy 271.78 52.07) (xy 280.67 52.07))
    (stroke (width 0) (type default))
    (uuid da6942e4-5ddc-4eb4-a3a5-2175a66131fa)
  )
  (wire (pts (xy 257.81 54.61) (xy 259.08 54.61))
    (stroke (width 0) (type default))
    (uuid de095e7a-cbe9-47d4-b09c-532336c2a9b6)
  )
  (wire (pts (xy 257.81 52.07) (xy 259.08 52.07))
    (stroke (width 0) (type default))
    (uuid ecfca6b0-e4f0-4984-b9a1-fd815521f3e8)
  )
  (wire (pts (xy 110.49 67.31) (xy 97.79 67.31))
    (stroke (width 0) (type default))
    (uuid ed2a62c3-85c7-435a-9058-d57b9c692357)
  )
  (wire (pts (xy 128.27 50.8) (xy 128.27 57.15))
    (stroke (width 0) (type default))
    (uuid f3d2025c-986e-47b1-85c6-cc986e6e8425)
  )
  (wire (pts (xy 257.81 62.23) (xy 267.97 62.23))
    (stroke (width 0) (type default))
    (uuid f579563a-36c6-48b9-ab64-1863c93fa532)
  )
  (wire (pts (xy 266.7 64.77) (xy 266.7 66.04))
    (stroke (width 0) (type default))
    (uuid ffd32301-23b0-4696-bcb9-d30712da658c)
  )

  (text "TEAM 26\nSIVUYILE NOSE\nMODULE INTERFACES WITH SENSOR AND POWER MODULES\nUCT\n"
    (at 180.34 173.99 0)
    (effects (font (size 1.27 1.27)) (justify left bottom))
    (uuid 5b497e5e-c70d-4e4d-8b4b-8cffcb318d14)
  )
  (text "(USB TO UART)" (at 229.87 118.11 0)
    (effects (font (size 2 2) (thickness 0.4) bold) (justify left bottom))
    (uuid 810b7028-bb27-4aa4-8c84-a039e2700040)
  )
  (text "CH340C" (at 232.41 114.3 0)
    (effects (font (size 3 3) (thickness 0.6) bold) (justify left bottom))
    (uuid c6ba369b-687c-4645-b5b2-55d4de78e751)
  )
  (text "MICROCONTROLLER\n" (at 125.73 25.4 0)
    (effects (font (size 3 3) (color 143 0 0 1)) (justify left bottom))
    (uuid c90b35b2-00c3-411a-931b-d2b97a275c3f)
  )

  (label "GND" (at 128.27 146.05 90) (fields_autoplaced)
    (effects (font (size 1.27 1.27)) (justify left bottom))
    (uuid 19acfef3-feea-4a0c-a64d-8ba5a1a10823)
  )
  (label "debugger" (at 186.69 135.89 0) (fields_autoplaced)
    (effects (font (size 1.27 1.27)) (justify left bottom))
    (uuid 1d2e07fb-4356-4ebc-bcaf-e3baccf26cf2)
  )
  (label "3V3" (at 123.19 50.8 270) (fields_autoplaced)
    (effects (font (size 1.27 1.27)) (justify right bottom))
    (uuid 315e1fbf-235b-4f8a-a0d8-38daebfe9eb6)
  )
  (label "SCL" (at 148.6408 67.2592 0) (fields_autoplaced)
    (effects (font (size 1.27 1.27)) (justify left bottom))
    (uuid 562c2879-ed95-4542-91a9-78831e919cdb)
  )
  (label "SDL" (at 148.6408 64.7192 0) (fields_autoplaced)
    (effects (font (size 1.27 1.27)) (justify left bottom))
    (uuid 5f85dde4-770f-4898-86cc-16247048923f)
  )
  (label "3V3" (at 125.73 50.8 270) (fields_autoplaced)
    (effects (font (size 1.27 1.27)) (justify right bottom))
    (uuid 6728d702-1945-48f3-b008-888fd5108400)
  )
  (label "DAC1" (at 152.4 72.39 180) (fields_autoplaced)
    (effects (font (size 1.27 1.27)) (justify right bottom))
    (uuid 6b3ec443-033b-4825-ae11-a8ef89ce58d1)
  )
  (label "3V3" (at 130.81 50.8 270) (fields_autoplaced)
    (effects (font (size 1.27 1.27)) (justify right bottom))
    (uuid 7607d372-5590-4304-98c7-c3784fd1b06d)
  )
  (label "T_SWDIO" (at 204.47 120.65 0) (fields_autoplaced)
    (effects (font (size 1.27 1.27)) (justify left bottom))
    (uuid 7bb05d74-ed72-42cb-bbcc-90f7cf85a3b3)
  )
  (label "T_SWCLK" (at 204.47 118.11 0) (fields_autoplaced)
    (effects (font (size 1.27 1.27)) (justify left bottom))
    (uuid 8290012a-a4b9-44ab-9c9c-2a8d7cde1100)
  )
  (label "3V3" (at 128.27 50.8 270) (fields_autoplaced)
    (effects (font (size 1.27 1.27)) (justify right bottom))
    (uuid 9f0bd49f-c126-4ac5-9a51-e9c5fc08a5c3)
  )
  (label "NRST" (at 204.47 113.03 0) (fields_autoplaced)
    (effects (font (size 1.27 1.27)) (justify left bottom))
    (uuid c21442fa-9b7d-4e97-be2c-3fb89fcc17f2)
  )
  (label "GND" (at 125.73 146.05 90) (fields_autoplaced)
    (effects (font (size 1.27 1.27)) (justify left bottom))
    (uuid cdbba2c2-c3b0-49de-a835-157cb9023294)
  )
  (label "T_SWCLK" (at 153.67 97.79 180) (fields_autoplaced)
    (effects (font (size 1.27 1.27)) (justify right bottom))
    (uuid de2ffedd-8d1f-4f62-8e6c-1f1bff65c504)
  )
  (label "T_SWDIO" (at 153.67 95.25 180) (fields_autoplaced)
    (effects (font (size 1.27 1.27)) (justify right bottom))
    (uuid ebba2dec-49d3-46a7-86a0-48616740c997)
  )

  (global_label "USB-" (shape input) (at 267.97 66.04 0) (fields_autoplaced)
    (effects (font (size 1.27 1.27)) (justify left))
    (uuid 14763ae7-80b4-42da-b0d8-8694212dc6e9)
    (property "Intersheetrefs" "${INTERSHEET_REFS}" (at 275.7655 65.9606 0)
      (effects (font (size 1.27 1.27)) (justify left) hide)
    )
  )
  (global_label "USB-" (shape input) (at 207.01 91.44 0) (fields_autoplaced)
    (effects (font (size 1.27 1.27)) (justify left))
    (uuid 6fe54744-8c62-4c8a-91e2-89f1c1cd4976)
    (property "Intersheetrefs" "${INTERSHEET_REFS}" (at 214.8055 91.3606 0)
      (effects (font (size 1.27 1.27)) (justify left) hide)
    )
  )
  (global_label "USB+" (shape input) (at 267.97 62.23 0) (fields_autoplaced)
    (effects (font (size 1.27 1.27)) (justify left))
    (uuid 81c9486d-0de1-4ae4-92ec-7f9b1fab4009)
    (property "Intersheetrefs" "${INTERSHEET_REFS}" (at 275.7655 62.1506 0)
      (effects (font (size 1.27 1.27)) (justify left) hide)
    )
  )
  (global_label "USB+" (shape input) (at 207.01 87.63 0) (fields_autoplaced)
    (effects (font (size 1.27 1.27)) (justify left))
    (uuid 83a5370d-8964-4ae3-a974-e8467f9d31f8)
    (property "Intersheetrefs" "${INTERSHEET_REFS}" (at 214.8055 87.5506 0)
      (effects (font (size 1.27 1.27)) (justify left) hide)
    )
  )
  (global_label "RXD" (shape input) (at 151.13 87.63 0) (fields_autoplaced)
    (effects (font (size 1.27 1.27)) (justify left))
    (uuid 87af20b5-6609-4f51-a44e-21690ebedb99)
    (property "Intersheetrefs" "${INTERSHEET_REFS}" (at 157.7853 87.63 0)
      (effects (font (size 1.27 1.27)) (justify left) hide)
    )
  )
  (global_label "TXD" (shape input) (at 151.13 85.09 0) (fields_autoplaced)
    (effects (font (size 1.27 1.27)) (justify left))
    (uuid c733d8eb-656d-4ef2-a517-a3e5a4c4e76a)
    (property "Intersheetrefs" "${INTERSHEET_REFS}" (at 157.4829 85.09 0)
      (effects (font (size 1.27 1.27)) (justify left) hide)
    )
  )
  (global_label "RXD" (shape input) (at 212.09 59.69 180) (fields_autoplaced)
    (effects (font (size 1.27 1.27)) (justify right))
    (uuid ca77e1c5-4492-4ebc-943a-a78a11764f78)
    (property "Intersheetrefs" "${INTERSHEET_REFS}" (at 205.9274 59.7694 0)
      (effects (font (size 1.27 1.27)) (justify right) hide)
    )
  )
  (global_label "TXD" (shape input) (at 209.55 64.77 180) (fields_autoplaced)
    (effects (font (size 1.27 1.27)) (justify right))
    (uuid cf36a4de-9f32-4d42-b6e3-dcdaf4b227ba)
    (property "Intersheetrefs" "${INTERSHEET_REFS}" (at 203.6898 64.8494 0)
      (effects (font (size 1.27 1.27)) (justify right) hide)
    )
  )
  (global_label "LDR" (shape input) (at 182.88 62.23 0) (fields_autoplaced)
    (effects (font (size 1.27 1.27)) (justify left))
    (uuid eebba395-1b4e-4d5e-b226-4f7fd968192a)
    (property "Intersheetrefs" "${INTERSHEET_REFS}" (at 189.3539 62.23 0)
      (effects (font (size 1.27 1.27)) (justify left) hide)
    )
  )

  (symbol (lib_id "Device:R_US") (at 165.1 46.99 0) (unit 1)
    (in_bom yes) (on_board yes) (dnp no) (fields_autoplaced)
    (uuid 01625ada-9adf-4234-8a3b-71de5ef78471)
    (property "Reference" "R2" (at 167.64 46.355 0)
      (effects (font (size 1.27 1.27)) (justify left))
    )
    (property "Value" "4k7" (at 167.64 48.895 0)
      (effects (font (size 1.27 1.27)) (justify left))
    )
    (property "Footprint" "" (at 166.116 47.244 90)
      (effects (font (size 1.27 1.27)) hide)
    )
    (property "Datasheet" "~" (at 165.1 46.99 0)
      (effects (font (size 1.27 1.27)) hide)
    )
    (pin "1" (uuid fb9bd3c8-58bf-4152-9da2-2c0d794bdd95))
    (pin "2" (uuid 17f84c0b-a1c0-4801-8048-5ea8fee24da9))
    (instances
      (project "Main Schematic"
        (path "/81c41bad-bb43-41af-b405-18d135a809b1/348a9f43-3fd2-4c4b-9a9a-df7968334a2a"
          (reference "R2") (unit 1)
        )
      )
      (project "Microcontroller Design"
        (path "/b8d97438-63f4-433e-afdc-8e43ab7e4842"
          (reference "R2") (unit 1)
        )
      )
      (project "MCU"
        (path "/e0666d22-e687-4adb-b95b-6588526d91f1"
          (reference "R3") (unit 1)
        )
      )
    )
  )

  (symbol (lib_id "power:GND") (at 63.5 39.37 0) (unit 1)
    (in_bom yes) (on_board yes) (dnp no) (fields_autoplaced)
    (uuid 096c6a39-a2af-4c73-a91c-f5105604fceb)
    (property "Reference" "#PWR03" (at 63.5 45.72 0)
      (effects (font (size 1.27 1.27)) hide)
    )
    (property "Value" "GND" (at 63.5 44.45 0)
      (effects (font (size 1.27 1.27)))
    )
    (property "Footprint" "" (at 63.5 39.37 0)
      (effects (font (size 1.27 1.27)) hide)
    )
    (property "Datasheet" "" (at 63.5 39.37 0)
      (effects (font (size 1.27 1.27)) hide)
    )
    (pin "1" (uuid b6b44239-92e2-4a73-9944-dc52cdbfaace))
    (instances
      (project "Main Schematic"
        (path "/81c41bad-bb43-41af-b405-18d135a809b1/348a9f43-3fd2-4c4b-9a9a-df7968334a2a"
          (reference "#PWR03") (unit 1)
        )
      )
      (project "Microcontroller Design"
        (path "/b8d97438-63f4-433e-afdc-8e43ab7e4842"
          (reference "#PWR03") (unit 1)
        )
      )
      (project "MCU"
        (path "/e0666d22-e687-4adb-b95b-6588526d91f1"
          (reference "#PWR03") (unit 1)
        )
      )
    )
  )

  (symbol (lib_id "Device:C") (at 267.97 52.07 90) (unit 1)
    (in_bom yes) (on_board yes) (dnp no) (fields_autoplaced)
    (uuid 194cf7da-6c27-4bfe-9f95-1e859558fd60)
    (property "Reference" "C7" (at 267.97 44.45 90)
      (effects (font (size 1.27 1.27)))
    )
    (property "Value" "100nF" (at 267.97 46.99 90)
      (effects (font (size 1.27 1.27)))
    )
    (property "Footprint" "100NF_C:CAPC1005X55N" (at 271.78 51.1048 0)
      (effects (font (size 1.27 1.27)) hide)
    )
    (property "Datasheet" "~" (at 267.97 52.07 0)
      (effects (font (size 1.27 1.27)) hide)
    )
    (pin "1" (uuid 13843db3-b61c-4d34-9b2c-d550f4a1a803))
    (pin "2" (uuid b6e5753d-c47d-433e-94a0-f3edfb0ad30b))
    (instances
      (project "microcontroller_interfacing1"
        (path "/0910cb2b-5973-4d8a-ae14-7a1f346a65e3"
          (reference "C7") (unit 1)
        )
      )
      (project "Main Schematic"
        (path "/81c41bad-bb43-41af-b405-18d135a809b1/348a9f43-3fd2-4c4b-9a9a-df7968334a2a"
          (reference "C7") (unit 1)
        )
      )
      (project "Microcontroller Design"
        (path "/b8d97438-63f4-433e-afdc-8e43ab7e4842"
          (reference "C1") (unit 1)
        )
      )
      (project "MCU"
        (path "/e0666d22-e687-4adb-b95b-6588526d91f1"
          (reference "C1") (unit 1)
        )
      )
    )
  )

  (symbol (lib_id "Device:R_US") (at 81.28 55.88 180) (unit 1)
    (in_bom yes) (on_board yes) (dnp no) (fields_autoplaced)
    (uuid 1b4288e6-769a-4675-b52d-309404d164f0)
    (property "Reference" "R3" (at 83.82 55.245 0)
      (effects (font (size 1.27 1.27)) (justify right))
    )
    (property "Value" "10k" (at 83.82 57.785 0)
      (effects (font (size 1.27 1.27)) (justify right))
    )
    (property "Footprint" "" (at 80.264 55.626 90)
      (effects (font (size 1.27 1.27)) hide)
    )
    (property "Datasheet" "~" (at 81.28 55.88 0)
      (effects (font (size 1.27 1.27)) hide)
    )
    (pin "1" (uuid cd355f7f-82b1-4c4c-a776-0e1165f7798e))
    (pin "2" (uuid 6c64b92e-199b-4902-9f54-9518cc855c8f))
    (instances
      (project "Main Schematic"
        (path "/81c41bad-bb43-41af-b405-18d135a809b1/348a9f43-3fd2-4c4b-9a9a-df7968334a2a"
          (reference "R3") (unit 1)
        )
      )
      (project "Microcontroller Design"
        (path "/b8d97438-63f4-433e-afdc-8e43ab7e4842"
          (reference "R3") (unit 1)
        )
      )
      (project "MCU"
        (path "/e0666d22-e687-4adb-b95b-6588526d91f1"
          (reference "R1") (unit 1)
        )
      )
    )
  )

  (symbol (lib_id "power:GND") (at 280.67 57.15 0) (unit 1)
    (in_bom yes) (on_board yes) (dnp no)
    (uuid 20bb0d54-c465-42a5-a51a-90589ffc1905)
    (property "Reference" "#PWR028" (at 280.67 63.5 0)
      (effects (font (size 1.27 1.27)) hide)
    )
    (property "Value" "GND" (at 283.845 59.055 0)
      (effects (font (size 1.27 1.27)))
    )
    (property "Footprint" "" (at 280.67 57.15 0)
      (effects (font (size 1.27 1.27)) hide)
    )
    (property "Datasheet" "" (at 280.67 57.15 0)
      (effects (font (size 1.27 1.27)) hide)
    )
    (pin "1" (uuid 83728bb5-0958-4b86-a1eb-b35c11174899))
    (instances
      (project "microcontroller_interfacing1"
        (path "/0910cb2b-5973-4d8a-ae14-7a1f346a65e3"
          (reference "#PWR028") (unit 1)
        )
      )
      (project "Main Schematic"
        (path "/81c41bad-bb43-41af-b405-18d135a809b1/348a9f43-3fd2-4c4b-9a9a-df7968334a2a"
          (reference "#PWR028") (unit 1)
        )
      )
      (project "Microcontroller Design"
        (path "/b8d97438-63f4-433e-afdc-8e43ab7e4842"
          (reference "#PWR09") (unit 1)
        )
      )
      (project "MCU"
        (path "/e0666d22-e687-4adb-b95b-6588526d91f1"
          (reference "#PWR010") (unit 1)
        )
      )
    )
  )

  (symbol (lib_id "power:+3V3") (at 165.1 36.83 0) (unit 1)
    (in_bom yes) (on_board yes) (dnp no) (fields_autoplaced)
    (uuid 3808e636-9890-4716-9432-0935180eb82f)
    (property "Reference" "#PWR02" (at 165.1 40.64 0)
      (effects (font (size 1.27 1.27)) hide)
    )
    (property "Value" "+3V3" (at 165.1 33.02 0)
      (effects (font (size 1.27 1.27)))
    )
    (property "Footprint" "" (at 165.1 36.83 0)
      (effects (font (size 1.27 1.27)) hide)
    )
    (property "Datasheet" "" (at 165.1 36.83 0)
      (effects (font (size 1.27 1.27)) hide)
    )
    (pin "1" (uuid fcd84b1a-8ae0-46b8-a176-7d72da416fc9))
    (instances
      (project "Main Schematic"
        (path "/81c41bad-bb43-41af-b405-18d135a809b1/348a9f43-3fd2-4c4b-9a9a-df7968334a2a"
          (reference "#PWR02") (unit 1)
        )
      )
      (project "Microcontroller Design"
        (path "/b8d97438-63f4-433e-afdc-8e43ab7e4842"
          (reference "#PWR02") (unit 1)
        )
      )
      (project "MCU"
        (path "/e0666d22-e687-4adb-b95b-6588526d91f1"
          (reference "#PWR06") (unit 1)
        )
      )
    )
  )

  (symbol (lib_id "Connector:TestPoint") (at 218.44 67.31 180) (unit 1)
    (in_bom yes) (on_board yes) (dnp no)
    (uuid 493cd248-9143-42db-803b-b6e72c9f98f6)
    (property "Reference" "TP8" (at 217.17 68.58 0)
      (effects (font (size 1.27 1.27)) (justify left))
    )
    (property "Value" "TXD" (at 222.25 68.58 0)
      (effects (font (size 1.27 1.27)) (justify left))
    )
    (property "Footprint" "TestPoint:TestPoint_Pad_1.0x1.0mm" (at 213.36 67.31 0)
      (effects (font (size 1.27 1.27)) hide)
    )
    (property "Datasheet" "~" (at 213.36 67.31 0)
      (effects (font (size 1.27 1.27)) hide)
    )
    (pin "1" (uuid 181a0a0e-9870-46fa-a577-2879b32e093e))
    (instances
      (project "microcontroller_interfacing1"
        (path "/0910cb2b-5973-4d8a-ae14-7a1f346a65e3"
          (reference "TP8") (unit 1)
        )
      )
      (project "Main Schematic"
        (path "/81c41bad-bb43-41af-b405-18d135a809b1/348a9f43-3fd2-4c4b-9a9a-df7968334a2a"
          (reference "TP8") (unit 1)
        )
      )
      (project "Microcontroller Design"
        (path "/b8d97438-63f4-433e-afdc-8e43ab7e4842"
          (reference "TP3") (unit 1)
        )
      )
      (project "MCU"
        (path "/e0666d22-e687-4adb-b95b-6588526d91f1"
          (reference "TP3") (unit 1)
        )
      )
    )
  )

  (symbol (lib_id "power:+3V3") (at 182.88 92.71 0) (unit 1)
    (in_bom yes) (on_board yes) (dnp no) (fields_autoplaced)
    (uuid 66b27c6b-2dd2-4585-9071-c07c4e2f4f25)
    (property "Reference" "#PWR06" (at 182.88 96.52 0)
      (effects (font (size 1.27 1.27)) hide)
    )
    (property "Value" "+3V3" (at 182.88 88.9 0)
      (effects (font (size 1.27 1.27)))
    )
    (property "Footprint" "" (at 182.88 92.71 0)
      (effects (font (size 1.27 1.27)) hide)
    )
    (property "Datasheet" "" (at 182.88 92.71 0)
      (effects (font (size 1.27 1.27)) hide)
    )
    (pin "1" (uuid baf663a5-184c-4239-b556-70caf7ce4d91))
    (instances
      (project "Main Schematic"
        (path "/81c41bad-bb43-41af-b405-18d135a809b1/348a9f43-3fd2-4c4b-9a9a-df7968334a2a"
          (reference "#PWR06") (unit 1)
        )
      )
      (project "Microcontroller Design"
        (path "/b8d97438-63f4-433e-afdc-8e43ab7e4842"
          (reference "#PWR06") (unit 1)
        )
      )
      (project "MCU"
        (path "/e0666d22-e687-4adb-b95b-6588526d91f1"
          (reference "#PWR07") (unit 1)
        )
      )
    )
  )

  (symbol (lib_id "Connector:Conn_01x02_Male") (at 198.12 88.9 0) (unit 1)
    (in_bom yes) (on_board yes) (dnp no) (fields_autoplaced)
    (uuid 69514b3e-8808-4446-8d17-74fbe5e11e80)
    (property "Reference" "J11" (at 198.755 83.185 0)
      (effects (font (size 1.27 1.27)))
    )
    (property "Value" "Conn_01x02_Male" (at 198.755 85.725 0)
      (effects (font (size 1.27 1.27)))
    )
    (property "Footprint" "Connector_PinHeader_2.54mm:PinHeader_1x02_P2.54mm_Vertical" (at 198.12 88.9 0)
      (effects (font (size 1.27 1.27)) hide)
    )
    (property "Datasheet" "~" (at 198.12 88.9 0)
      (effects (font (size 1.27 1.27)) hide)
    )
    (pin "1" (uuid 83e95658-f57d-4716-9e68-94f428ca6325))
    (pin "2" (uuid 8aa3df87-71be-4c51-9120-c4ff3dcfe961))
    (instances
      (project "microcontroller_interfacing1"
        (path "/0910cb2b-5973-4d8a-ae14-7a1f346a65e3"
          (reference "J11") (unit 1)
        )
      )
      (project "Main Schematic"
        (path "/81c41bad-bb43-41af-b405-18d135a809b1/348a9f43-3fd2-4c4b-9a9a-df7968334a2a"
          (reference "J11") (unit 1)
        )
      )
      (project "Microcontroller Design"
        (path "/b8d97438-63f4-433e-afdc-8e43ab7e4842"
          (reference "J4") (unit 1)
        )
      )
      (project "MCU"
        (path "/e0666d22-e687-4adb-b95b-6588526d91f1"
          (reference "J4") (unit 1)
        )
      )
    )
  )

  (symbol (lib_id "power:GND") (at 182.88 140.97 0) (unit 1)
    (in_bom yes) (on_board yes) (dnp no) (fields_autoplaced)
    (uuid 6f66e6de-e360-4a1f-811b-c192c0ee120c)
    (property "Reference" "#PWR07" (at 182.88 147.32 0)
      (effects (font (size 1.27 1.27)) hide)
    )
    (property "Value" "GND" (at 182.88 146.05 0)
      (effects (font (size 1.27 1.27)))
    )
    (property "Footprint" "" (at 182.88 140.97 0)
      (effects (font (size 1.27 1.27)) hide)
    )
    (property "Datasheet" "" (at 182.88 140.97 0)
      (effects (font (size 1.27 1.27)) hide)
    )
    (pin "1" (uuid 52d11420-9e50-478b-854e-f8d15382d6fb))
    (instances
      (project "Main Schematic"
        (path "/81c41bad-bb43-41af-b405-18d135a809b1/348a9f43-3fd2-4c4b-9a9a-df7968334a2a"
          (reference "#PWR07") (unit 1)
        )
      )
      (project "Microcontroller Design"
        (path "/b8d97438-63f4-433e-afdc-8e43ab7e4842"
          (reference "#PWR07") (unit 1)
        )
      )
      (project "MCU"
        (path "/e0666d22-e687-4adb-b95b-6588526d91f1"
          (reference "#PWR08") (unit 1)
        )
      )
    )
  )

  (symbol (lib_id "power:GND") (at 81.28 59.69 0) (unit 1)
    (in_bom yes) (on_board yes) (dnp no) (fields_autoplaced)
    (uuid 968a7c98-29d2-4cf5-a3c0-1aea91818d2a)
    (property "Reference" "#PWR04" (at 81.28 66.04 0)
      (effects (font (size 1.27 1.27)) hide)
    )
    (property "Value" "GND" (at 81.28 64.77 0)
      (effects (font (size 1.27 1.27)))
    )
    (property "Footprint" "" (at 81.28 59.69 0)
      (effects (font (size 1.27 1.27)) hide)
    )
    (property "Datasheet" "" (at 81.28 59.69 0)
      (effects (font (size 1.27 1.27)) hide)
    )
    (pin "1" (uuid 452f5f2c-accc-446a-b717-a2a87cd6fbf8))
    (instances
      (project "Main Schematic"
        (path "/81c41bad-bb43-41af-b405-18d135a809b1/348a9f43-3fd2-4c4b-9a9a-df7968334a2a"
          (reference "#PWR04") (unit 1)
        )
      )
      (project "Microcontroller Design"
        (path "/b8d97438-63f4-433e-afdc-8e43ab7e4842"
          (reference "#PWR04") (unit 1)
        )
      )
      (project "MCU"
        (path "/e0666d22-e687-4adb-b95b-6588526d91f1"
          (reference "#PWR04") (unit 1)
        )
      )
    )
  )

  (symbol (lib_id "power:GND") (at 261.62 88.9 0) (unit 1)
    (in_bom yes) (on_board yes) (dnp no) (fields_autoplaced)
    (uuid 9b533539-c753-4b5d-bf61-839fba7fd100)
    (property "Reference" "#PWR027" (at 261.62 95.25 0)
      (effects (font (size 1.27 1.27)) hide)
    )
    (property "Value" "GND" (at 261.62 93.98 0)
      (effects (font (size 1.27 1.27)))
    )
    (property "Footprint" "" (at 261.62 88.9 0)
      (effects (font (size 1.27 1.27)) hide)
    )
    (property "Datasheet" "" (at 261.62 88.9 0)
      (effects (font (size 1.27 1.27)) hide)
    )
    (pin "1" (uuid 159140fe-a099-48f0-85d7-03a6d5437826))
    (instances
      (project "microcontroller_interfacing1"
        (path "/0910cb2b-5973-4d8a-ae14-7a1f346a65e3"
          (reference "#PWR027") (unit 1)
        )
      )
      (project "Main Schematic"
        (path "/81c41bad-bb43-41af-b405-18d135a809b1/348a9f43-3fd2-4c4b-9a9a-df7968334a2a"
          (reference "#PWR027") (unit 1)
        )
      )
      (project "Microcontroller Design"
        (path "/b8d97438-63f4-433e-afdc-8e43ab7e4842"
          (reference "#PWR08") (unit 1)
        )
      )
      (project "MCU"
        (path "/e0666d22-e687-4adb-b95b-6588526d91f1"
          (reference "#PWR09") (unit 1)
        )
      )
    )
  )

  (symbol (lib_id "CH340C:CH340C") (at 242.57 69.85 0) (unit 1)
    (in_bom yes) (on_board yes) (dnp no) (fields_autoplaced)
    (uuid cf5ba183-0147-43fc-9b5f-11de916cde8b)
    (property "Reference" "U3" (at 242.57 44.45 0)
      (effects (font (size 1.27 1.27)))
    )
    (property "Value" "CH340C" (at 242.57 46.99 0)
      (effects (font (size 1.27 1.27)))
    )
    (property "Footprint" "CH340:SOIC127P600X180-16N" (at 242.57 69.85 0)
      (effects (font (size 1.27 1.27)) (justify left bottom) hide)
    )
    (property "Datasheet" "" (at 242.57 69.85 0)
      (effects (font (size 1.27 1.27)) (justify left bottom) hide)
    )
    (property "MANUFACTURER" "WCH" (at 242.57 69.85 0)
      (effects (font (size 1.27 1.27)) (justify left bottom) hide)
    )
    (property "PARTREV" "2G" (at 242.57 69.85 0)
      (effects (font (size 1.27 1.27)) (justify left bottom) hide)
    )
    (property "MAXIMUM_PACKAGE_HEIGHT" "1.8 mm" (at 242.57 69.85 0)
      (effects (font (size 1.27 1.27)) (justify left bottom) hide)
    )
    (property "STANDARD" "IPC 7351B" (at 242.57 69.85 0)
      (effects (font (size 1.27 1.27)) (justify left bottom) hide)
    )
    (pin "1" (uuid ad5ee648-3e78-40e2-8218-36e7d5ee5153))
    (pin "10" (uuid b9edb071-8da1-474c-93a1-afda628f7d44))
    (pin "11" (uuid 80416bf1-1cd0-4f5d-ac49-17e0e3a9cee2))
    (pin "12" (uuid d52158c2-91f5-4242-b9d9-0a4005432a30))
    (pin "13" (uuid ecd94a03-d4dd-43f6-a5ab-2c0b59ecfa22))
    (pin "14" (uuid c884d11f-ce93-47ef-a720-15705a2f4f35))
    (pin "15" (uuid 870a39c3-af79-4474-b48e-21ac77cbff0c))
    (pin "16" (uuid 5d046a12-f854-4ea3-ac61-7cbe8cc750f3))
    (pin "2" (uuid 668f20cf-df8c-45ea-8fd2-28b8c42e2bae))
    (pin "3" (uuid a9560b98-8424-4352-a8b3-606f85aa673f))
    (pin "4" (uuid 5338ec2e-d64d-4518-84b9-580632eb8686))
    (pin "5" (uuid 1e53c8cd-b3e8-475e-8749-b0a5a2a867db))
    (pin "6" (uuid 3a98c2d9-b4a7-4756-b3c3-d547911b8a74))
    (pin "7" (uuid 04c5cd8a-c821-40de-9e6d-07296b8d5139))
    (pin "8" (uuid 49d62185-8aa1-4e96-9a25-411d15a7cec8))
    (pin "9" (uuid d14297c6-8734-4af7-9e4e-df2b315ff63d))
    (instances
      (project "microcontroller_interfacing1"
        (path "/0910cb2b-5973-4d8a-ae14-7a1f346a65e3"
          (reference "U3") (unit 1)
        )
      )
      (project "Main Schematic"
        (path "/81c41bad-bb43-41af-b405-18d135a809b1/348a9f43-3fd2-4c4b-9a9a-df7968334a2a"
          (reference "U3") (unit 1)
        )
      )
      (project "Microcontroller Design"
        (path "/b8d97438-63f4-433e-afdc-8e43ab7e4842"
          (reference "U2") (unit 1)
        )
      )
      (project "MCU"
        (path "/e0666d22-e687-4adb-b95b-6588526d91f1"
          (reference "U2") (unit 1)
        )
      )
    )
  )

  (symbol (lib_id "MCU_ST_STM32F0:STM32F051C6Tx") (at 125.73 100.33 0) (unit 1)
    (in_bom yes) (on_board yes) (dnp no) (fields_autoplaced)
    (uuid d97e984d-2c43-4cb8-a891-bc414d2ff099)
    (property "Reference" "U1" (at 130.2259 140.97 0)
      (effects (font (size 1.27 1.27)) (justify left))
    )
    (property "Value" "STM32F051C6Tx" (at 130.2259 143.51 0)
      (effects (font (size 1.27 1.27)) (justify left))
    )
    (property "Footprint" "Package_QFP:LQFP-48_7x7mm_P0.5mm" (at 113.03 138.43 0)
      (effects (font (size 1.27 1.27)) (justify right) hide)
    )
    (property "Datasheet" "https://www.st.com/resource/en/datasheet/stm32f051c6.pdf" (at 125.73 100.33 0)
      (effects (font (size 1.27 1.27)) hide)
    )
    (pin "1" (uuid 4d9e342a-7c36-40fb-99c4-1d27284c85fa))
    (pin "10" (uuid 43dfaca2-d112-4bf3-a1f0-c12b7d2abee6))
    (pin "11" (uuid 62fa20ab-f51f-451d-bf23-526c7a2b031c))
    (pin "12" (uuid 5de032aa-9ca2-451c-8484-5f18fc2c5cf9))
    (pin "13" (uuid e4a0deea-4199-420d-81aa-25db12bcfe95))
    (pin "14" (uuid 183d3106-9cf0-43f8-bab0-884a1ed5356d))
    (pin "15" (uuid 209e4587-30f5-4908-8fc5-9d1a300353c2))
    (pin "16" (uuid ee9251ad-054b-45ab-8d9a-c5f721729ac0))
    (pin "17" (uuid df0dc9e2-fe9c-490b-b040-2f0ab4bfb8d0))
    (pin "18" (uuid f507ad7e-4b2e-4da6-b3d9-7b70a7bd53ac))
    (pin "19" (uuid b3616744-e998-4179-82ea-c06073760d72))
    (pin "2" (uuid 4abe6103-fd5a-4adb-84b7-537317966856))
    (pin "20" (uuid 7c86ebf6-1f18-497d-8883-bb4139c272a7))
    (pin "21" (uuid 4c7820c9-7b0b-4b30-88cc-18aa81b376fd))
    (pin "22" (uuid 02e3ae85-2371-47f8-b1f3-512b426bf3b0))
    (pin "23" (uuid 8aaa26ba-e3f2-4b1c-b3ca-3534cf32e5f5))
    (pin "24" (uuid 5463d877-4950-4390-8bdd-0b718efa2e16))
    (pin "25" (uuid affa59af-4583-42ab-99ae-4f1febf65140))
    (pin "26" (uuid 71c64c90-8795-4b53-accf-812484579a43))
    (pin "27" (uuid cc4df6ca-4703-40bd-b978-6fd85945352d))
    (pin "28" (uuid dab301e2-18ad-422f-ae2f-5fe954f45a9a))
    (pin "29" (uuid 2b558196-7304-4c93-b356-801eefb5398a))
    (pin "3" (uuid 2945fd0c-a75f-4875-8fa8-7132d1f57367))
    (pin "30" (uuid 3ef3f172-34bf-480d-86ab-93518f0bd8de))
    (pin "31" (uuid dc8ab447-4ea8-47b9-a71d-19affa5c565c))
    (pin "32" (uuid 0509df20-b826-4905-948c-725cfdc2e64b))
    (pin "33" (uuid cb696ea2-b529-494b-90ee-5c34b048a1e3))
    (pin "34" (uuid d188d54c-52fe-47e4-a72d-3f37ff32c910))
    (pin "35" (uuid 2e61df9f-51e4-4e26-99b7-5bf487e26c99))
    (pin "36" (uuid efe404cf-063c-4e22-b4aa-5874a14d063d))
    (pin "37" (uuid 8d060d11-b988-4d96-92fa-8f601aa72830))
    (pin "38" (uuid 7834818f-e737-432d-b504-05ca064af4ec))
    (pin "39" (uuid ab7a00fe-0969-43d0-9806-902bec345e78))
    (pin "4" (uuid 593c0caf-6f9b-4700-95fd-e015d7efa988))
    (pin "40" (uuid 136675d9-cec6-43b6-bc23-4b87a06b5601))
    (pin "41" (uuid 02acc5b2-2285-46d5-af60-9ec7b84691c8))
    (pin "42" (uuid 0317737a-9618-4586-925c-625781d1d9a9))
    (pin "43" (uuid 416ac292-9dd9-4ecc-86c4-b8fc93742ca8))
    (pin "44" (uuid 7137f51b-60e5-4965-bb35-f70670723427))
    (pin "45" (uuid c43e1139-7e1b-41d0-9eb2-ecfe3bbee927))
    (pin "46" (uuid c02b2a0e-1514-47e4-990e-7d77d9aeece5))
    (pin "47" (uuid 8c036008-5526-49ae-8308-8cbb5dde0bb0))
    (pin "48" (uuid 3b77fcd2-d603-4501-9d10-482da072f505))
    (pin "5" (uuid caf781d6-6d5b-4508-95d7-898def218c81))
    (pin "6" (uuid bf2ca7ec-3764-4fd9-8b98-281e85a45785))
    (pin "7" (uuid a8742e20-8a47-41a3-a0b3-2123561c257b))
    (pin "8" (uuid 386722ef-493c-4dca-be56-cae50266d3bc))
    (pin "9" (uuid b8208b2c-e366-416f-b1bd-01a671548fa9))
    (instances
      (project "Main Schematic"
        (path "/81c41bad-bb43-41af-b405-18d135a809b1/348a9f43-3fd2-4c4b-9a9a-df7968334a2a"
          (reference "U1") (unit 1)
        )
      )
      (project "Microcontroller Design"
        (path "/b8d97438-63f4-433e-afdc-8e43ab7e4842"
          (reference "U1") (unit 1)
        )
      )
      (project "MCU"
        (path "/e0666d22-e687-4adb-b95b-6588526d91f1"
          (reference "U1") (unit 1)
        )
      )
    )
  )

  (symbol (lib_id "Connector:Conn_ARM_JTAG_SWD_10") (at 182.88 120.65 0) (unit 1)
    (in_bom yes) (on_board yes) (dnp no) (fields_autoplaced)
    (uuid e82da4f5-d6ed-443d-bc0e-c4712cb667f0)
    (property "Reference" "J1" (at 171.45 120.015 0)
      (effects (font (size 1.27 1.27)) (justify right))
    )
    (property "Value" "Conn_ARM_JTAG_SWD_10" (at 171.45 122.555 0)
      (effects (font (size 1.27 1.27)) (justify right))
    )
    (property "Footprint" "" (at 182.88 120.65 0)
      (effects (font (size 1.27 1.27)) hide)
    )
    (property "Datasheet" "http://infocenter.arm.com/help/topic/com.arm.doc.ddi0314h/DDI0314H_coresight_components_trm.pdf" (at 173.99 152.4 90)
      (effects (font (size 1.27 1.27)) hide)
    )
    (pin "1" (uuid af405a49-9111-40d0-95e3-43a31158b01f))
    (pin "10" (uuid 0660f4ed-7040-468e-8a7b-a7dd28ff9aaf))
    (pin "2" (uuid eda7df07-1e01-4aab-bbb6-0854563bd1eb))
    (pin "3" (uuid 103e8c67-20f3-420d-99f4-4d731acbe387))
    (pin "4" (uuid 0aac4dae-798e-46e5-8327-3cdf9019e053))
    (pin "5" (uuid 3e8a4637-792a-42e6-8afe-a5e3b307cc4e))
    (pin "6" (uuid eeef1744-6273-4757-a5d3-6d09447b1029))
    (pin "7" (uuid a7bcae8a-ad60-417b-8746-9f868b4e4a9c))
    (pin "8" (uuid deec3754-4885-4888-b3ab-47bade1b2746))
    (pin "9" (uuid ac52c25c-93e7-4595-9c69-957b4f4d6a02))
    (instances
      (project "Main Schematic"
        (path "/81c41bad-bb43-41af-b405-18d135a809b1/348a9f43-3fd2-4c4b-9a9a-df7968334a2a"
          (reference "J1") (unit 1)
        )
      )
      (project "Microcontroller Design"
        (path "/b8d97438-63f4-433e-afdc-8e43ab7e4842"
          (reference "J1") (unit 1)
        )
      )
      (project "MCU"
        (path "/e0666d22-e687-4adb-b95b-6588526d91f1"
          (reference "J3") (unit 1)
        )
      )
    )
  )

  (symbol (lib_id "Switch:SW_Push") (at 72.39 34.29 0) (unit 1)
    (in_bom yes) (on_board yes) (dnp no) (fields_autoplaced)
    (uuid eb772afa-38e4-4f00-b24e-af50dfe5ffe9)
    (property "Reference" "SW1" (at 72.39 27.94 0)
      (effects (font (size 1.27 1.27)))
    )
    (property "Value" "SW_Push" (at 72.39 30.48 0)
      (effects (font (size 1.27 1.27)))
    )
    (property "Footprint" "" (at 72.39 29.21 0)
      (effects (font (size 1.27 1.27)) hide)
    )
    (property "Datasheet" "~" (at 72.39 29.21 0)
      (effects (font (size 1.27 1.27)) hide)
    )
    (pin "1" (uuid 13c0a8a3-4e5b-4fe8-bdcb-11136622e629))
    (pin "2" (uuid c381f360-3171-464c-ae24-f938468f7a1c))
    (instances
      (project "Main Schematic"
        (path "/81c41bad-bb43-41af-b405-18d135a809b1/348a9f43-3fd2-4c4b-9a9a-df7968334a2a"
          (reference "SW1") (unit 1)
        )
      )
      (project "Microcontroller Design"
        (path "/b8d97438-63f4-433e-afdc-8e43ab7e4842"
          (reference "SW1") (unit 1)
        )
      )
      (project "MCU"
        (path "/e0666d22-e687-4adb-b95b-6588526d91f1"
          (reference "SW1") (unit 1)
        )
      )
    )
  )

  (symbol (lib_id "power:PWR_FLAG") (at 259.08 49.53 90) (unit 1)
    (in_bom yes) (on_board yes) (dnp no) (fields_autoplaced)
    (uuid efcdf017-d9c7-49c1-8497-7476f82d11ea)
    (property "Reference" "#FLG05" (at 257.175 49.53 0)
      (effects (font (size 1.27 1.27)) hide)
    )
    (property "Value" "PWR_FLAG" (at 257.81 45.72 90)
      (effects (font (size 1.27 1.27)))
    )
    (property "Footprint" "" (at 259.08 49.53 0)
      (effects (font (size 1.27 1.27)) hide)
    )
    (property "Datasheet" "~" (at 259.08 49.53 0)
      (effects (font (size 1.27 1.27)) hide)
    )
    (pin "1" (uuid c81c3b1c-1caf-4654-82e8-9f774088f585))
    (instances
      (project "microcontroller_interfacing1"
        (path "/0910cb2b-5973-4d8a-ae14-7a1f346a65e3"
          (reference "#FLG05") (unit 1)
        )
      )
      (project "Main Schematic"
        (path "/81c41bad-bb43-41af-b405-18d135a809b1/348a9f43-3fd2-4c4b-9a9a-df7968334a2a"
          (reference "#FLG05") (unit 1)
        )
      )
      (project "Microcontroller Design"
        (path "/b8d97438-63f4-433e-afdc-8e43ab7e4842"
          (reference "#FLG01") (unit 1)
        )
      )
      (project "MCU"
        (path "/e0666d22-e687-4adb-b95b-6588526d91f1"
          (reference "#FLG01") (unit 1)
        )
      )
    )
  )

  (symbol (lib_id "Connector:TestPoint") (at 219.71 62.23 0) (unit 1)
    (in_bom yes) (on_board yes) (dnp no)
    (uuid fb8bd921-18a5-434d-97c6-b00f2cd03419)
    (property "Reference" "TP9" (at 215.9 60.96 0)
      (effects (font (size 1.27 1.27)) (justify left))
    )
    (property "Value" "RXD" (at 215.9 57.15 0)
      (effects (font (size 1.27 1.27)) (justify left))
    )
    (property "Footprint" "TestPoint:TestPoint_Pad_1.0x1.0mm" (at 224.79 62.23 0)
      (effects (font (size 1.27 1.27)) hide)
    )
    (property "Datasheet" "~" (at 224.79 62.23 0)
      (effects (font (size 1.27 1.27)) hide)
    )
    (pin "1" (uuid 2b55ed84-53e1-4822-be92-ccf723d6a308))
    (instances
      (project "microcontroller_interfacing1"
        (path "/0910cb2b-5973-4d8a-ae14-7a1f346a65e3"
          (reference "TP9") (unit 1)
        )
      )
      (project "Main Schematic"
        (path "/81c41bad-bb43-41af-b405-18d135a809b1/348a9f43-3fd2-4c4b-9a9a-df7968334a2a"
          (reference "TP9") (unit 1)
        )
      )
      (project "Microcontroller Design"
        (path "/b8d97438-63f4-433e-afdc-8e43ab7e4842"
          (reference "TP4") (unit 1)
        )
      )
      (project "MCU"
        (path "/e0666d22-e687-4adb-b95b-6588526d91f1"
          (reference "TP4") (unit 1)
        )
      )
    )
  )

  (sheet_instances
    (path "/" (page "1"))
  )
)
